{
    "_id": "vNWSzv36L1GBPPoc",
    "data": {
        "boosts": {
            "0": {
                "value": [
                    "int",
                    "str"
                ]
            },
            "1": {
                "value": [
                    "cha",
                    "con",
                    "dex",
                    "int",
                    "str",
                    "wis"
                ]
            }
        },
        "description": {
            "chat": "",
            "unidentified": "",
            "value": "<p>The various Hellknight Orders intrigue you, whether you seek to become one of their number yourself, wish to oppose their goals at every turn, or are merely inspired by or curious to learn more about them. You've heard that when the Order of the Nail abandoned Citadel Altaerein, they left behind the deed to the castle so anyone brave enough to explore the ruins and the defenses no doubt left behind would be rewarded with ownership of the abandoned fortress.</p>\n<p>You decided to join the Call for Heroes to hoping to gain an opportunity to explore Citadel Altaerein.</p>\n<p>Choose two ability boosts. One must be to <strong>Strength</strong> or <strong>Intelligence</strong>, and one is a free ability boost.</p>\n<p>You're trained in the Society skill and the Architecture Lore skill. You gain the @Compendium[pf2e.feats-srd.Courtly Graces]{Courtly Graces} skill feat.</p>"
        },
        "items": {
            "fzch2": {
                "id": "JtjnFsOToBLnSRO9",
                "img": "systems/pf2e/icons/features/feats/feats.webp",
                "level": "1",
                "name": "Courtly Graces",
                "pack": "pf2e.feats-srd"
            }
        },
        "rules": [],
        "source": {
            "value": ""
        },
        "trainedLore": "Architecture Lore",
        "trainedSkills": {
            "value": [
                "soc"
            ]
        },
        "traits": {
            "custom": "",
            "rarity": {
                "value": "common"
            },
            "value": []
        }
    },
    "effects": [],
    "flags": {},
    "img": "systems/pf2e/icons/default-icons/mystery-man.svg",
    "name": "Hellknight Historian",
    "permission": {
        "default": 0
    },
    "type": "background"
}
