{
    "_id": "LVixPROPOwIfHgEK",
    "data": {
        "armor": {
            "value": "2"
        },
        "armorType": {
            "value": "shield"
        },
        "baseItem": null,
        "brokenThreshold": {
            "value": 14
        },
        "bulkCapacity": {
            "value": ""
        },
        "check": {
            "value": "0"
        },
        "collapsed": {
            "value": false
        },
        "containerId": {
            "value": ""
        },
        "description": {
            "chat": "",
            "unidentified": "",
            "value": "<p><span>Dragonhide shields are each immune to one damage type based on the type of dragon.</span></p>\n<table style=\"height: 134px; width: 368px;\" border=\"1\">\n<tbody style=\"box-sizing: border-box; user-select: text;\">\n<tr style=\"box-sizing: border-box; user-select: text; height: 17px;\">\n<td style=\"box-sizing: border-box; user-select: text; color: white; width: 116px; text-align: center; background-color: #522e2c; height: 17px;\"><strong style=\"box-sizing: border-box; user-select: text;\">Dragon Type</strong></td>\n<td style=\"box-sizing: border-box; user-select: text; color: white; width: 251px; text-align: center; background-color: #522e2c; height: 17px;\"><strong>Breath Weapon (Save)</strong></td>\n</tr>\n<tr style=\"box-sizing: border-box; user-select: text; height: 17px;\">\n<td style=\"box-sizing: border-box; user-select: text; width: 116px; background-color: #f6f1e1; height: 17px; text-align: center;\">Black or copper<br /><span id=\"ctl00_MainContent_DetailedOutput\" style=\"box-sizing: border-box; user-select: text; display: block;\"></span></td>\n<td style=\"box-sizing: border-box; user-select: text; width: 251px; background-color: #f6f1e1; height: 17px; text-align: center;\"><span>30-foot line of acid (Reflex)</span></td>\n</tr>\n<tr style=\"height: 20px;\">\n<td style=\"box-sizing: border-box; user-select: text; width: 116px; background-color: #eee5c8; text-align: center; height: 20px;\"><span>Blue or bronze</span></td>\n<td style=\"box-sizing: border-box; user-select: text; width: 251px; background-color: #eee5c8; text-align: center; height: 20px;\"><span>30-foot line of electricity (Reflex) </span></td>\n</tr>\n<tr style=\"height: 20px;\">\n<td style=\"box-sizing: border-box; user-select: text; width: 116px; background-color: #f6f1e1; text-align: center; height: 20px;\"><span>Brass</span></td>\n<td style=\"box-sizing: border-box; user-select: text; width: 251px; background-color: #f6f1e1; text-align: center; height: 20px;\"><span>30-foot line of fire (Reflex) </span></td>\n</tr>\n<tr style=\"height: 20px;\">\n<td style=\"box-sizing: border-box; user-select: text; width: 116px; background-color: #eee5c8; text-align: center; height: 20px;\"><span>Green</span></td>\n<td style=\"box-sizing: border-box; user-select: text; width: 251px; background-color: #eee5c8; text-align: center; height: 20px;\"><span>15-foot cone of poison (Fortitude) </span></td>\n</tr>\n<tr style=\"height: 20px;\">\n<td style=\"box-sizing: border-box; user-select: text; width: 116px; background-color: #f6f1e1; text-align: center; height: 20px;\"><span>Gold or red</span></td>\n<td style=\"box-sizing: border-box; user-select: text; width: 251px; background-color: #f6f1e1; text-align: center; height: 20px;\"><span>15-foot cone of fire (Reflex) </span></td>\n</tr>\n<tr style=\"height: 20px;\">\n<td style=\"box-sizing: border-box; user-select: text; width: 116px; background-color: #eee5c8; text-align: center; height: 20px;\"><span>Silver or white</span></td>\n<td style=\"box-sizing: border-box; user-select: text; width: 251px; background-color: #eee5c8; text-align: center; height: 20px;\"><span>15-foot cone of cold (Reflex) <br /><br /></span></td>\n</tr>\n</tbody>\n</table>\n<p><span>The shield has Hardness 7, HP 28, and BT 14.<br /><strong>Craft Requirements</strong> dragonhide worth at least 4,400 gp </span></p>"
        },
        "dex": {
            "value": "0"
        },
        "equipped": {
            "value": false
        },
        "equippedBulk": {
            "value": ""
        },
        "group": {
            "value": ""
        },
        "hardness": {
            "value": 7
        },
        "hp": {
            "value": 28
        },
        "identification": {
            "misidentified": {},
            "status": "identified",
            "unidentified": {
                "data": {
                    "description": {
                        "value": ""
                    }
                },
                "img": "",
                "name": ""
            }
        },
        "invested": {
            "value": false
        },
        "level": {
            "value": "16"
        },
        "maxHp": {
            "value": 28
        },
        "negateBulk": {
            "value": "0"
        },
        "potencyRune": {
            "value": 0
        },
        "preciousMaterial": {
            "value": "dragonhide"
        },
        "preciousMaterialGrade": {
            "value": "high"
        },
        "price": {
            "value": "8,800 gp"
        },
        "propertyRune1": {
            "value": ""
        },
        "propertyRune2": {
            "value": ""
        },
        "propertyRune3": {
            "value": ""
        },
        "propertyRune4": {
            "value": ""
        },
        "quantity": {
            "value": "1"
        },
        "resiliencyRune": {
            "value": ""
        },
        "rules": [],
        "size": {
            "value": "med"
        },
        "source": {
            "value": ""
        },
        "speed": {
            "value": "0"
        },
        "stackGroup": {
            "value": ""
        },
        "strength": {
            "value": "0"
        },
        "traits": {
            "custom": "",
            "rarity": {
                "value": "uncommon"
            },
            "value": []
        },
        "usage": {
            "value": "held-in-one-hand"
        },
        "weight": {
            "value": "1"
        }
    },
    "effects": [],
    "flags": {},
    "img": "systems/pf2e/icons/equipment/shields/precious-material-shields/dragonhide-shield.webp",
    "name": "Dragonhide Shield (High-Grade)",
    "permission": {
        "default": 0
    },
    "type": "armor"
}
