{
    "_id": "WDh4fb9N86mNLfDV",
    "data": {
        "armor": {
            "value": "2"
        },
        "armorType": {
            "value": "shield"
        },
        "baseItem": null,
        "brokenThreshold": {
            "value": 12
        },
        "bulkCapacity": {
            "value": ""
        },
        "check": {
            "value": "0"
        },
        "collapsed": {
            "value": false
        },
        "containerId": {
            "value": ""
        },
        "description": {
            "chat": "",
            "unidentified": "",
            "value": "<p>Five jagged spines project from the surface of this steel shield (Hardness 6, HP 24, BT 12). The spines are +1 striking shield spikes.</p>\n<p>When you use the Shield Block reaction with this shield, the spines take the damage before the shield itself does. When the shield would take damage (after applying Hardness), one spine snaps off per 6 damage, reducing the damage by 6. The shield takes any remaining damage. When there are no spines left, the shield takes damage as normal.</p>\n<p>When all the spines are gone, you lose the ability to attack with them until the spines regenerate the next day.</p>\n<p><strong>Activate</strong> <span class=\"pf2-icon\">A</span> Interact</p>\n<p><strong>Effect</strong> You shoot one of the shield's spines at a target. A fired spine uses the spikes' statistics, but it is a martial ranged weapon with a range increment of 120 feet.</p>"
        },
        "dex": {
            "value": "0"
        },
        "equipped": {
            "value": false
        },
        "equippedBulk": {
            "value": ""
        },
        "group": {
            "value": null
        },
        "hardness": {
            "value": 6
        },
        "hp": {
            "value": 24
        },
        "identification": {
            "misidentified": {},
            "status": "identified",
            "unidentified": {
                "data": {
                    "description": {
                        "value": ""
                    }
                },
                "img": "",
                "name": ""
            }
        },
        "invested": {
            "value": false
        },
        "level": {
            "value": "7"
        },
        "maxHp": {
            "value": 24
        },
        "negateBulk": {
            "value": "0"
        },
        "potencyRune": {
            "value": 0
        },
        "preciousMaterial": {
            "value": ""
        },
        "preciousMaterialGrade": {
            "value": ""
        },
        "price": {
            "value": "360 gp"
        },
        "propertyRune1": {
            "value": ""
        },
        "propertyRune2": {
            "value": ""
        },
        "propertyRune3": {
            "value": ""
        },
        "propertyRune4": {
            "value": ""
        },
        "quantity": {
            "value": "1"
        },
        "resiliencyRune": {
            "value": ""
        },
        "rules": [],
        "size": {
            "value": "med"
        },
        "source": {
            "value": ""
        },
        "speed": {
            "value": "0"
        },
        "stackGroup": {
            "value": ""
        },
        "strength": {
            "value": "0"
        },
        "traits": {
            "custom": "",
            "rarity": {
                "value": "common"
            },
            "value": [
                "evocation",
                "magical"
            ]
        },
        "usage": {
            "value": "held-in-one-hand"
        },
        "weight": {
            "value": "1"
        }
    },
    "effects": [],
    "flags": {},
    "img": "systems/pf2e/icons/equipment/shields/specific-shields/spined-shield.webp",
    "name": "Spined Shield",
    "permission": {
        "default": 0
    },
    "type": "armor"
}
