{
    "_id": "2EE4aF4SZpYf0R6H",
    "data": {
        "actionCategory": {
            "value": ""
        },
        "actionType": {
            "value": "action"
        },
        "actions": {
            "value": "2"
        },
        "description": {
            "chat": "",
            "unidentified": "",
            "value": "<p><strong>Requirements</strong> You're wearing or holding @Compendium[pf2e.equipment-srd.Thieves' Tools]{Thieves' Tools}</p>\n<hr />\n<p>Opening a lock without a key is very similar to @Compendium[pf2e.actionspf2e.Disable Device]{Disable Device}, but the DC of the check is determined by the complexity and construction of the lock you are attempting to pick (locks and their DCs are found in their description). Locks of higher qualities might require multiple successes to unlock, since otherwise even an unskilled burglar could easily crack the lock by attempting the check until they rolled a natural 20. If you lack the proper tools, the GM might let you used improvised picks, which are treated as shoddy tools, depending on the specifics of the lock.</p>\n<hr />\n<p><strong>Critical Success</strong> You unlock the lock, or you achieve two successes toward opening a complex lock. You leave no trace of your tampering.</p>\n<p><strong>Success</strong> You open the lock, or you achieve one success toward opening a complex lock.</p>\n<p><strong>Critical Failure</strong> You break your tools. Fixing them requires using Crafting to @Compendium[pf2e.actionspf2e.Repair]{Repair} them or else swapping in @Compendium[pf2e.equipment-srd.Thieves' Tools (Replacement Picks)]{Replacement Picks}.</p>"
        },
        "requirements": {
            "value": ""
        },
        "rules": [],
        "source": {
            "value": ""
        },
        "traits": {
            "custom": "",
            "rarity": {
                "value": "common"
            },
            "value": [
                "manipulate",
                "skill"
            ]
        },
        "trigger": {
            "value": ""
        },
        "weapon": {
            "value": ""
        }
    },
    "effects": [],
    "flags": {},
    "img": "systems/pf2e/icons/actions/TwoActions.webp",
    "name": "Pick a Lock",
    "permission": {
        "default": 0
    },
    "type": "action"
}
