{
    "_id": "FkfWKq9jhhPzKAbb",
    "data": {
        "actionCategory": {
            "value": ""
        },
        "actionType": {
            "value": "free"
        },
        "actions": {
            "value": ""
        },
        "description": {
            "chat": "",
            "unidentified": "",
            "value": "<p><strong>Trigger</strong>: You use @Compendium[pf2e.feats-srd.Orc Ferocity]{Orc Ferocity}</p>\n<hr />\n<p>You lash out viciously even as you fend off death. Make a single melee @Compendium[pf2e.actionspf2e.Strike]{Strike}. If this Strike brings a foe to 0 Hit Points, this activation of Orc Ferocity doesn't count against its frequency.</p>"
        },
        "requirements": {
            "value": ""
        },
        "rules": [],
        "source": {
            "value": ""
        },
        "traits": {
            "custom": "",
            "rarity": {
                "value": "common"
            },
            "selected": {},
            "value": []
        },
        "trigger": {
            "value": ""
        },
        "weapon": {
            "value": ""
        }
    },
    "effects": [],
    "flags": {},
    "img": "systems/pf2e/icons/actions/FreeAction.webp",
    "name": "Rampaging Ferocity",
    "permission": {
        "default": 0
    },
    "type": "action"
}
