{
    "_id": "OSefkMgojBLqmRDh",
    "data": {
        "actionCategory": {
            "value": ""
        },
        "actionType": {
            "value": "passive"
        },
        "actions": {
            "value": ""
        },
        "description": {
            "chat": "",
            "unidentified": "",
            "value": "<p><strong>Requirements</strong>: You have a focus pool, and you have spent at least 1 Focus Point since you last regained any Focus Points.</p>\n<hr />\n<p>You spend 10 minutes performing deeds to restore your magical connection. This restores 1 Focus Point to your focus pool. The deeds you need to perform are specified in the class or ability that gives you your focus spells. These deeds can usually overlap with other tasks that relate to the source of your focus spells. For instance, a cleric with focus spells from a good deity can usually Refocus while tending the wounds of their allies, and a wizard of the illusionist school might be able to Refocus while attempting to @Compendium[pf2e.actionspf2e.Identify Magic]{Identify Magic} of the illusion school.</p>"
        },
        "requirements": {
            "value": ""
        },
        "rules": [],
        "source": {
            "value": ""
        },
        "traits": {
            "custom": "",
            "rarity": {
                "value": "common"
            },
            "selected": {
                "concentrate": "Concentrate",
                "exploration": "Exploration"
            },
            "value": [
                "concentrate",
                "exploration"
            ]
        },
        "trigger": {
            "value": ""
        },
        "weapon": {
            "value": ""
        }
    },
    "effects": [],
    "flags": {},
    "img": "systems/pf2e/icons/default-icons/mystery-man.svg",
    "name": "Refocus",
    "permission": {
        "default": 0
    },
    "type": "action"
}
