{
    "_id": "ioGzmVSmMGXWWBYb",
    "data": {
        "description": {
            "chat": "",
            "unidentified": "",
            "value": "<p>Granted by @Compendium[pf2e.equipment-srd.Cloak of the Bat]{Cloak of the Bat}</p>\n<p>Automatically applied effects:</p>\n<ul>\n<li>Gain a 30 foot Fly speed.</li>\n</ul>"
        },
        "duration": {
            "expiry": "turn-start",
            "sustained": false,
            "unit": "minutes",
            "value": 10
        },
        "level": {
            "value": 10
        },
        "rules": [
            {
                "key": "PF2E.RuleElement.BaseSpeed",
                "selector": "fly",
                "value": 30
            },
            {
                "key": "PF2E.RuleElement.TokenEffectIcon"
            }
        ],
        "source": {
            "value": ""
        },
        "start": {
            "initiative": null,
            "value": 0
        },
        "traits": {
            "custom": "",
            "rarity": {
                "value": "common"
            },
            "value": []
        }
    },
    "effects": [],
    "flags": {},
    "img": "systems/pf2e/icons/equipment/worn-items/other-worn-items/cloak-of-the-bat.webp",
    "name": "Effect: Cloak of the Bat",
    "permission": {
        "default": 0
    },
    "type": "effect"
}
