{
    "_id": "erCOcFZJPT2O3gwC",
    "data": {
        "actionCategory": {
            "value": ""
        },
        "actionType": {
            "value": "passive"
        },
        "actions": {
            "value": ""
        },
        "description": {
            "chat": "",
            "unidentified": "",
            "value": "<p>Your righteous aura dampens evil's might. You and all allies within 15 feet gain evil resistance 5.</p>"
        },
        "featType": {
            "value": "class"
        },
        "level": {
            "value": "14"
        },
        "prerequisites": {
            "value": [
                {
                    "value": "tenets of good"
                }
            ]
        },
        "rules": [],
        "source": {
            "value": ""
        },
        "traits": {
            "custom": "",
            "rarity": {
                "value": "common"
            },
            "value": [
                "champion"
            ]
        }
    },
    "effects": [],
    "flags": {},
    "img": "systems/pf2e/icons/default-icons/feats.webp",
    "name": "Aura of Righteousness",
    "permission": {
        "default": 0
    },
    "type": "feat"
}
