{
    "_id": "5AnJTAZnuWrkL8fa",
    "data": {
        "actionCategory": {
            "value": ""
        },
        "actionType": {
            "value": "passive"
        },
        "actions": {
            "value": ""
        },
        "description": {
            "chat": "",
            "unidentified": "",
            "value": "<p><strong>Access</strong> Spiresworn elf<br /></p>\n<hr />\n<p>You loathe the alghollthus and their mind magic, and you've been trained to be willing to die rather than give into mental manipulation. If you would start your turn @Compendium[pf2e.conditionitems.Confused]{Confused}, @Compendium[pf2e.conditionitems.Controlled]{Controlled}, or @Compendium[pf2e.conditionitems.Fleeing]{Fleeing} due to a failed Will save, you can attempt a Will save against the same DC; on a success, you become @Compendium[pf2e.conditionitems.Paralyzed]{Paralyzed} until your next turn, rather than act against your will.</p>"
        },
        "featType": {
            "value": "ancestry"
        },
        "level": {
            "value": 5
        },
        "location": "",
        "prerequisites": {
            "value": []
        },
        "rules": [],
        "source": {
            "value": ""
        },
        "traits": {
            "custom": "",
            "rarity": {
                "value": "uncommon"
            },
            "value": [
                "elf"
            ]
        }
    },
    "effects": [],
    "flags": {},
    "img": "systems/pf2e/icons/features/feats/feats.webp",
    "name": "Defiance Unto Death",
    "permission": {
        "default": 0
    },
    "type": "feat"
}
