{
    "_id": "8JMOgtB3XG7o6ffW",
    "data": {
        "actionCategory": {
            "value": ""
        },
        "actionType": {
            "value": "passive"
        },
        "actions": {
            "value": ""
        },
        "description": {
            "chat": "",
            "unidentified": "",
            "value": "<p>Your Inspire Courage lets loose a discordant shriek that imbues your allies' attacks with powerful sonic reverberations.</p>\n<p>While your allies are affected by your @Compendium[pf2e.spells-srd.Inspire Courage]{Inspire Courage}, their weapon strikes and unarmed attacks deal an additional [[/r 1d6 #sonic]] sonic damage.</p>\n<p>@Compendium[pf2e.feat-effects.Effect: Discordant Voice]{Effect: Discordant Voice}</p>"
        },
        "featType": {
            "value": "class"
        },
        "level": {
            "value": 18
        },
        "location": "",
        "prerequisites": {
            "value": [
                {
                    "value": "inspire courage"
                }
            ]
        },
        "rules": [],
        "source": {
            "value": ""
        },
        "traits": {
            "custom": "",
            "rarity": {
                "value": "common"
            },
            "value": [
                "bard",
                "evocation",
                "sonic"
            ]
        }
    },
    "effects": [],
    "flags": {},
    "img": "systems/pf2e/icons/features/feats/feats.webp",
    "name": "Discordant Voice",
    "permission": {
        "default": 0
    },
    "type": "feat"
}
