{
    "_id": "IY86Kvopp4ACuQsw",
    "data": {
        "actionCategory": {
            "value": ""
        },
        "actionType": {
            "value": "action"
        },
        "actions": {
            "value": "1"
        },
        "description": {
            "chat": "",
            "unidentified": "",
            "value": "<p><strong>Frequency</strong> a number of times per day equal to your level</p>\n<hr />\n<p>You envenom your fangs. If the next fangs Strike you make before the end of your next turn hits and deals damage, the Strike deals an additional 1d6 poison damage. On a critical failure, the poison is wasted as normal.</p>"
        },
        "featType": {
            "value": "ancestry"
        },
        "level": {
            "value": "5"
        },
        "prerequisites": {
            "value": [
                {
                    "value": "Sharp Fangs"
                }
            ]
        },
        "rules": [],
        "source": {
            "value": ""
        },
        "traits": {
            "custom": "",
            "rarity": {
                "value": "common"
            },
            "value": [
                "lizardfolk"
            ]
        }
    },
    "effects": [],
    "flags": {},
    "img": "systems/pf2e/icons/features/feats/feats.webp",
    "name": "Envenom Fangs",
    "permission": {
        "default": 0
    },
    "type": "feat"
}
