{
    "_id": "n9CBjyiB17srkyr4",
    "data": {
        "actionCategory": {
            "value": ""
        },
        "actionType": {
            "value": "passive"
        },
        "actions": {
            "value": ""
        },
        "description": {
            "chat": "",
            "unidentified": "",
            "value": "<p>You are trained with composite longbows, composite shortbows, glaives, halberds, longbows, longspears, longswords, shortbows, and spears. In addition, you gain access to all uncommon hobgoblin weapons. For the purpose of determining your proficiency, martial hobgoblin weapons are simple weapons and advanced hobgoblin weapons are martial weapons.</p>"
        },
        "featType": {
            "value": "ancestry"
        },
        "level": {
            "value": "1"
        },
        "prerequisites": {
            "value": []
        },
        "rules": [],
        "source": {
            "value": ""
        },
        "traits": {
            "custom": "",
            "rarity": {
                "value": "common"
            },
            "value": [
                "hobgoblin"
            ]
        }
    },
    "effects": [],
    "flags": {},
    "img": "systems/pf2e/icons/features/feats/feats.webp",
    "name": "Hobgoblin Weapon Familiarity",
    "permission": {
        "default": 0
    },
    "type": "feat"
}
