{
    "_id": "AYb8PmGJ37HwIMwj",
    "data": {
        "actionCategory": {
            "value": "interaction"
        },
        "actionType": {
            "value": "action"
        },
        "actions": {
            "value": "1"
        },
        "description": {
            "chat": "",
            "unidentified": "",
            "value": "<p>You can Juggle items and still use your hands between tosses. You can use the Juggle action in several ways.</p>\n<p>You can start to Juggle with a single stored item, an item you were carrying, or an unattended item within your reach. The item must be of light or negligible Bulk. You Juggle the item until the end of your next turn, unless you use this feat against next turn to continue Juggling (see below). While you are Juggling, you can use this action again to add another item to the Juggle, which must meet all the same requirements. You can Juggle a number of items equal to one more than the number of hands you are using to Juggle.<br /><br />You can also use this action to continue Juggling as long as you aren't fatigued. When you do, you continue to Juggle until the end of your next turn. If you do not continue Juggling by the end of your turn, you cease Juggling and you drop all the items. You become fatigued if you continue Juggling for more than 10 minutes (60 rounds) within the course of an hour.</p>\n<p>As long as you're Juggling fewer than your maximum number of items, you have a free hand. You can wield weapons you are Juggling (but not shields or other items) as long as they can be wielded in one hand. For example, while you Juggle a dagger in one hand and wield a shield in the other, you are wielding the dagger but still have a free hand to Cast a Spell with a material component. Juggling two or more weapons with one hand doesn't allow you to use feats that require two weapons each held in a different hand.</p>"
        },
        "featType": {
            "value": "skill"
        },
        "level": {
            "value": 2
        },
        "prerequisites": {
            "value": [
                {
                    "value": "dexterity 16"
                },
                {
                    "value": "trained in Performance"
                }
            ]
        },
        "rules": [],
        "source": {
            "value": ""
        },
        "traits": {
            "custom": "",
            "rarity": {
                "value": "common"
            },
            "value": [
                "concentrate",
                "general",
                "manipulate",
                "skill"
            ]
        }
    },
    "effects": [],
    "flags": {},
    "img": "systems/pf2e/icons/features/feats/feats.webp",
    "name": "Juggle",
    "permission": {
        "default": 0
    },
    "type": "feat"
}
