{
    "_id": "9lyFxaoZjF1ZjVN9",
    "data": {
        "actionCategory": {
            "value": ""
        },
        "actionType": {
            "value": "passive"
        },
        "actions": {
            "value": ""
        },
        "description": {
            "chat": "",
            "unidentified": "",
            "value": "<p>You become trained in your choice of Guild Lore, Legal Lore, Mercantile Lore, or Underworld Lore. You gain a +1 circumstance bonus to Diplomacy checks to Gather Information and to checks made to investigate crimes.</p>"
        },
        "featType": {
            "value": "archetype"
        },
        "level": {
            "value": "3"
        },
        "prerequisites": {
            "value": [
                {
                    "value": "Zephyr Guard Dedication"
                }
            ]
        },
        "rules": [],
        "source": {
            "value": ""
        },
        "traits": {
            "custom": "",
            "rarity": {
                "value": "common"
            },
            "value": [
                "archetype",
                "skill"
            ]
        }
    },
    "effects": [],
    "flags": {},
    "img": "systems/pf2e/icons/features/feats/feats.webp",
    "name": "Know the Beat",
    "permission": {
        "default": 0
    },
    "type": "feat"
}
