{
    "_id": "56BMXlQlZtg39SMV",
    "data": {
        "actionCategory": {
            "value": ""
        },
        "actionType": {
            "value": "passive"
        },
        "actions": {
            "value": ""
        },
        "description": {
            "chat": "",
            "unidentified": "",
            "value": "<p>When you cast doubt upon your foes, the effect lasts longer than usual.</p>\n<p>After being enfeebled 2 by your @Compendium[pf2e.actionspf2e.Glimpse of Redemption]{Glimpse of Redemption}, the foe is enfeebled 1 for 1 minute.</p>\n<p>If you have @Compendium[pf2e.feats-srd.Weight of Guilt]{Weight of Guilt}, after being stupefied 2 by your Glimpse of Redemption, the foe is stupefied 1 for 1 minute or until the flat check from stupefied causes it to lose a spell, whichever comes first.</p>"
        },
        "featType": {
            "value": "class"
        },
        "level": {
            "value": 12
        },
        "location": "",
        "prerequisites": {
            "value": [
                {
                    "value": "redeemer cause"
                }
            ]
        },
        "rules": [],
        "source": {
            "value": ""
        },
        "traits": {
            "custom": "",
            "rarity": {
                "value": "common"
            },
            "value": [
                "champion"
            ]
        }
    },
    "effects": [],
    "flags": {},
    "img": "systems/pf2e/icons/features/feats/feats.webp",
    "name": "Lasting Doubt",
    "permission": {
        "default": 0
    },
    "type": "feat"
}
