{
    "_id": "UcIyf7bTDf6RwydU",
    "data": {
        "actionCategory": {
            "value": ""
        },
        "actionType": {
            "value": "action"
        },
        "actions": {
            "value": "1"
        },
        "description": {
            "chat": "",
            "unidentified": "",
            "value": "<p>You quickly snatch up whatever's nearby and then attack with it as an improvised weapon.</p>\n<p>You @Compendium[pf2e.actionspf2e.Interact]{Interact} to pick up a nearby object you could use as an improvised weapon. It must be located at around your chest level, such as a mug on a table, rather than an object on the floor. You then either @Compendium[pf2e.actionspf2e.Strike]{Strike} or make an @Compendium[pf2e.feats-srd.Improvised Pummel]{Improvised Pummel} with the improvised weapon.</p>"
        },
        "featType": {
            "value": "archetype"
        },
        "level": {
            "value": "8"
        },
        "prerequisites": {
            "value": [
                {
                    "value": "Weapon Improviser Dedication"
                }
            ]
        },
        "rules": [],
        "source": {
            "value": ""
        },
        "traits": {
            "custom": "",
            "rarity": {
                "value": "common"
            },
            "value": [
                "archetype"
            ]
        }
    },
    "effects": [],
    "flags": {},
    "img": "systems/pf2e/icons/features/feats/feats.webp",
    "name": "Makeshift Strike",
    "permission": {
        "default": 0
    },
    "type": "feat"
}
