{
    "_id": "rTjGshtUMHnlBUfH",
    "data": {
        "actionCategory": {
            "value": ""
        },
        "actionType": {
            "value": "passive"
        },
        "actions": {
            "value": ""
        },
        "description": {
            "value": "<p>You’ve befriended a sea creature, which becomes magically bonded to you. You gain a familiar. The type of creature is up to you, but one of its abilities must always be a swim Speed or the amphibious familiar ability.</p>"
        },
        "featType": {
            "value": "ancestry"
        },
        "level": {
            "value": 5
        },
        "location": "",
        "prerequisites": {
            "value": []
        },
        "rules": [],
        "source": {
            "value": ""
        },
        "traits": {
            "custom": "",
            "rarity": {
                "value": "common"
            },
            "value": [
                "azarketi"
            ]
        }
    },
    "effects": [],
    "flags": {},
    "img": "systems/pf2e/icons/default-icons/feats.webp",
    "name": "Marine Ally",
    "permission": {
        "default": 0
    },
    "type": "feat"
}
