{
    "_id": "Mvw3ZFrdwMHedAxY",
    "data": {
        "actionCategory": {
            "value": ""
        },
        "actionType": {
            "value": "free"
        },
        "actions": {
            "value": ""
        },
        "description": {
            "chat": "",
            "unidentified": "",
            "value": "<p><strong>Frequency</strong> once per round</p>\n<p><strong>Trigger</strong> You craft an elixir of life using Quick Alchemy, and that elixir is at least 2 levels lower than your advanced alchemy level</p>\n<hr />\n<p>You mix a special additive into your elixir that calms the drinker's body and mind. The elixir of life attempts to counteract one fear effect or one effect imposing the paralyzed condition on the drinker using the item's level and a counteract modifier equal to your class DC - 10.</p>"
        },
        "featType": {
            "value": "class"
        },
        "level": {
            "value": 10
        },
        "prerequisites": {
            "value": []
        },
        "rules": [],
        "source": {
            "value": ""
        },
        "traits": {
            "custom": "",
            "rarity": {
                "value": "common"
            },
            "value": [
                "alchemist",
                "additive2"
            ]
        }
    },
    "effects": [],
    "flags": {},
    "img": "systems/pf2e/icons/features/feats/feats.webp",
    "name": "Merciful Elixir",
    "permission": {
        "default": 0
    },
    "type": "feat"
}
