{
    "_id": "oIE88rIDEFNm83Mr",
    "data": {
        "actionCategory": {
            "value": ""
        },
        "actionType": {
            "value": "passive"
        },
        "actions": {
            "value": ""
        },
        "description": {
            "chat": "",
            "unidentified": "",
            "value": "<p>You can push larger foes around with your attack. You can use @Compendium[pf2e.feats-srd.Aggressive Block]{Aggressive Block} or @Compendium[pf2e.feats-srd.Brutish Shove]{Brutish Shove} against a creature up to two sizes larger than you.</p>\n<p>When a creature you @Compendium[pf2e.actionspf2e.Shove]{Shove} has to stop moving because it would hit an object, it takes damage equal to your Strength modifier (minimum 1). This happens regardless of how you Shoved the creature.</p>"
        },
        "featType": {
            "value": "class"
        },
        "level": {
            "value": 4
        },
        "prerequisites": {
            "value": [
                {
                    "value": "Aggressive Block or Brutish Shove"
                }
            ]
        },
        "rules": [],
        "source": {
            "value": ""
        },
        "traits": {
            "custom": "",
            "rarity": {
                "value": "common"
            },
            "value": [
                "fighter"
            ]
        }
    },
    "effects": [],
    "flags": {},
    "img": "systems/pf2e/icons/features/feats/feats.webp",
    "name": "Powerful Shove",
    "permission": {
        "default": 0
    },
    "type": "feat"
}
