{
    "_id": "AGiIjgLOFuahmwiT",
    "data": {
        "actionCategory": {
            "value": ""
        },
        "actionType": {
            "value": "action"
        },
        "actions": {
            "value": "2"
        },
        "description": {
            "value": "<p>You attempt to subdue a target with an attack and a follow-up grab. Make a melee Strike. If it hits and deals damage, you can attempt an Athletics check to Grapple the creature you hit. If you’re wielding a flail, you can ignore Grapple’s requirement that you have a hand free. Both attacks count toward your multiple attack penalty, but the penalty doesn’t increase until after you’ve made both of them.</p>"
        },
        "featType": {
            "value": "bonus"
        },
        "level": {
            "value": 0
        },
        "location": "",
        "prerequisites": {
            "value": [
                {
                    "value": "Order of the Chain"
                }
            ]
        },
        "rules": [],
        "source": {
            "value": ""
        },
        "traits": {
            "custom": "",
            "rarity": {
                "value": "common"
            },
            "value": [
                "flourish"
            ]
        }
    },
    "effects": [],
    "flags": {},
    "img": "systems/pf2e/icons/default-icons/feat.svg",
    "name": "Shackles of Law",
    "permission": {
        "default": 0
    },
    "type": "feat"
}
