{
    "_id": "aVRuchEAJIvnd70k",
    "data": {
        "actionCategory": {
            "value": ""
        },
        "actionType": {
            "value": "passive"
        },
        "actions": {
            "value": ""
        },
        "description": {
            "chat": "",
            "unidentified": "",
            "value": "<p>You've always had a tail, but with practice, you've learned to use it for more than signaling your mood.</p>\n<p>You can perform simple @Compendium[pf2e.actionspf2e.Interact]{Interact} actions with your tail such as opening an unlocked door. Your tail can't perform actions that require fingers or significant manual dexterity, including any action that would require a check to accomplish, and you can't use it to hold items.</p>"
        },
        "featType": {
            "value": "ancestry"
        },
        "level": {
            "value": "5"
        },
        "prerequisites": {
            "value": []
        },
        "rules": [],
        "source": {
            "value": ""
        },
        "traits": {
            "custom": "",
            "rarity": {
                "value": "common"
            },
            "value": [
                "tiefling"
            ]
        }
    },
    "effects": [],
    "flags": {},
    "img": "systems/pf2e/icons/features/feats/feats.webp",
    "name": "Skillful Tail (Tiefling)",
    "permission": {
        "default": 0
    },
    "type": "feat"
}
