{
    "_id": "IvgLDtXmZwzbVJj1",
    "data": {
        "actionCategory": {
            "value": ""
        },
        "actionType": {
            "value": "passive"
        },
        "actions": {
            "value": ""
        },
        "description": {
            "chat": "",
            "unidentified": "",
            "value": "<p>You learn your foes' strengths and weaknesses by watching them move. When you critically hit a creature with a @Compendium[pf2e.actionspf2e.Strike]{Strike} on which you substituted your attack roll due to @Compendium[pf2e.actionspf2e.Devise a Stratagem]{Devising a Strategem}, the GM chooses one of the following pieces of information about the enemy to tell you.</p>\n<ul>\n<li>Which of the enemy's weaknesses is highest</li>\n<li>Which of the enemy's resistances is highest</li>\n<li>Which of the enemy's saving throws is lowest</li>\n<li>One immunity the enemy has</li>\n</ul>\n<p>The GM can choose deliberately or at random, but they can't choose information that doesn't apply (such as choosing an immunity for an enemy that has no immunities). This applies only the first time you critically hit a given creature.</p>"
        },
        "featType": {
            "value": "class"
        },
        "level": {
            "value": "4"
        },
        "prerequisites": {
            "value": []
        },
        "rules": [],
        "source": {
            "value": ""
        },
        "traits": {
            "custom": "",
            "rarity": {
                "value": "common"
            },
            "value": [
                "investigator"
            ]
        }
    },
    "effects": [],
    "flags": {},
    "img": "systems/pf2e/icons/features/feats/feats.webp",
    "name": "Strategic Assessment",
    "permission": {
        "default": 0
    },
    "type": "feat"
}
