{
    "_id": "TNpoEG0cUEAuSju7",
    "data": {
        "actionCategory": {
            "value": ""
        },
        "actionType": {
            "value": "passive"
        },
        "actions": {
            "value": ""
        },
        "description": {
            "chat": "",
            "unidentified": "",
            "value": "<p><strong>Access</strong> The following class feat is available to Knights of Lastwall.</p>\n<hr />\n<p>You can unleash burning sunlight from your sword or spear.</p>\n<p>You gain the @Compendium[pf2e.spells-srd.Sun Blade]{Sun Blade} devotion spell. Increase the number of Focus Points in your focus pool by 1.</p>"
        },
        "featType": {
            "value": "class"
        },
        "level": {
            "value": 4
        },
        "location": "",
        "prerequisites": {
            "value": []
        },
        "rules": [],
        "source": {
            "value": ""
        },
        "traits": {
            "custom": "",
            "rarity": {
                "value": "uncommon"
            },
            "value": [
                "champion"
            ]
        }
    },
    "effects": [],
    "flags": {},
    "img": "systems/pf2e/icons/features/feats/feats.webp",
    "name": "Sun Blade",
    "permission": {
        "default": 0
    },
    "type": "feat"
}
