{
    "_id": "MTO0spetPKyIa4sT",
    "data": {
        "actionCategory": {
            "value": ""
        },
        "actionType": {
            "value": "passive"
        },
        "actions": {
            "value": ""
        },
        "description": {
            "chat": "",
            "unidentified": "",
            "value": "<p>Experience and training have taught you that water has just enough surface tension for a master sprinter to traverse the surface.</p>\n<p>When you @Compendium[pf2e.actionspf2e.Stride]{Stride} in a straight line, if you move at least half your Speed over ground, you can move any amount of the remaining distance across a level body of water. If you don't end your Stride on solid ground, you fall into the water.</p>\n<p>If you're legendary in Athletics, as long as you start on solid ground, any part of your Stride can cross the water's surface, even if you aren't moving a straight line, though you still fall into the water if you don't end your movement on solid ground.</p>"
        },
        "featType": {
            "value": "skill"
        },
        "level": {
            "value": "7"
        },
        "prerequisites": {
            "value": [
                {
                    "value": "master in Athletics"
                }
            ]
        },
        "rules": [],
        "source": {
            "value": ""
        },
        "traits": {
            "custom": "",
            "rarity": {
                "value": "common"
            },
            "value": [
                "general",
                "skill"
            ]
        }
    },
    "effects": [],
    "flags": {},
    "img": "systems/pf2e/icons/features/feats/feats.webp",
    "name": "Water Sprint",
    "permission": {
        "default": 0
    },
    "type": "feat"
}
