{
    "_id": "pkH4DPmMWcimMov7",
    "data": {
        "actionCategory": {
            "value": ""
        },
        "actionType": {
            "value": "passive"
        },
        "actions": {
            "value": ""
        },
        "description": {
            "chat": "",
            "unidentified": "",
            "value": "<p><strong>Requirements</strong> You have at least one 1st-level spell slot and a wayfinder.</p>\n<hr />\n<p>You can use your wayfinder to store a little extra magic for when you need it most. When making your daily preparations, you can choose one 1st-level spell from your spellbook or spell repertoire and store it in your wayfinder. You can cast this spell from the wayfinder using the normal actions required. Once the spell has been cast, it is expended, and you must make your next daily preparations to store another spell in your wayfinder.</p>"
        },
        "featType": {
            "value": "archetype"
        },
        "level": {
            "value": 6
        },
        "prerequisites": {
            "value": [
                {
                    "value": "Pathfinder Agent Dedication"
                },
                {
                    "value": "Wayfinder Resonance Tinkerer"
                }
            ]
        },
        "rules": [],
        "source": {
            "value": ""
        },
        "traits": {
            "custom": "",
            "rarity": {
                "value": "common"
            },
            "value": [
                "archetype"
            ]
        }
    },
    "effects": [],
    "flags": {},
    "img": "systems/pf2e/icons/features/feats/feats.webp",
    "name": "Westyr's Wayfinder Repository",
    "permission": {
        "default": 0
    },
    "type": "feat"
}
