{
    "_id": "Y1bEisU8jVCsIYk3",
    "data": {
        "actionCategory": {
            "value": ""
        },
        "actionType": {
            "value": "passive"
        },
        "actions": {
            "value": ""
        },
        "description": {
            "chat": "",
            "unidentified": "",
            "value": "<p>You have a innate familiarity with forested areas. When in a forest or jungle environment, if you roll a critical failure on a Survival skill check to Sense Direction, Subsist, or Cover Tracks, you get a failure instead, and if you roll a success, you get a critical success instead.</p>"
        },
        "featType": {
            "value": "ancestry"
        },
        "level": {
            "value": "1"
        },
        "prerequisites": {
            "value": []
        },
        "rules": [],
        "source": {
            "value": ""
        },
        "traits": {
            "custom": "",
            "rarity": {
                "value": "common"
            },
            "value": [
                "elf"
            ]
        }
    },
    "effects": [],
    "flags": {},
    "img": "systems/pf2e/icons/features/feats/feats.webp",
    "name": "Woodcraft",
    "permission": {
        "default": 0
    },
    "type": "feat"
}
