{
    "_id": "JgidFws6bOoGQcti",
    "data": {
        "actionCategory": {
            "value": ""
        },
        "actionType": {
            "value": "passive"
        },
        "actions": {
            "value": ""
        },
        "description": {
            "value": "<p>You have unlocked abstruse methods to tangle with reality itself, altering the fate of a single individual. Once per day as an occult innate spell, you can cast @Compendium[pf2e.spells-srd.Daydreamer's Curse]{Daydreamer's Curse}, @Compendium[pf2e.spells-srd.Outcast's Curse]{Outcast's Curse}, or @Compendium[pf2e.spells-srd.Savant's Curse]{Savant's Curse}. At the GM’s discretion, you can substitute or add additional occult curse spells of 4th level or lower to this list. You can choose a different spell from the list each time you use this ability. If you couldn’t already cast occult spells, these spells use Intelligence as your spellcasting ability, and you become trained in spell attack rolls and spell DCs for occult spells; if you could already cast occult spells, your proficiency in spell attack rolls and spell DCs for occult spells increases to expert.</p>"
        },
        "featType": {
            "value": "archetype"
        },
        "level": {
            "value": 14
        },
        "location": "",
        "prerequisites": {
            "value": [
                {
                    "value": "Eldritch Researcher Dedication"
                }
            ]
        },
        "rules": [],
        "source": {
            "value": ""
        },
        "traits": {
            "custom": "",
            "rarity": {
                "value": "common"
            },
            "value": [
                "archetype"
            ]
        }
    },
    "effects": [],
    "flags": {},
    "img": "systems/pf2e/icons/default-icons/feats.webp",
    "name": "Words of Unraveling",
    "permission": {
        "default": 0
    },
    "type": "feat"
}
