{
    "_id": "c2wwILmpgyXIjlfe",
    "data": {
        "actionCategory": {
            "value": ""
        },
        "actionType": {
            "value": "passive"
        },
        "actions": {
            "value": ""
        },
        "description": {
            "chat": "",
            "unidentified": "",
            "value": "<p><strong>Major Curse</strong>: You are forever cast out from your home. Members of your community have their attitudes towards you shift two steps worse, meaning those who used to be helpful are now indifferent, those who were friendly are now unfriendly, and all others are now hostile. This doesn't necessarily result in violence, but hostile community members generally seek your permanent exile.</p>"
        },
        "featType": {
            "value": "curse"
        },
        "level": {
            "value": "0"
        },
        "prerequisites": {
            "value": []
        },
        "rules": [],
        "source": {
            "value": ""
        },
        "traits": {
            "custom": "",
            "rarity": {
                "value": "common"
            },
            "selected": {},
            "value": []
        }
    },
    "effects": [],
    "flags": {},
    "img": "systems/pf2e/icons/deity/Torag.webp",
    "name": "Torag - Major Curse",
    "permission": {
        "default": 0
    },
    "type": "feat"
}
