{
    "_id": "jfWeNqYj3rn9EysM",
    "data": {
        "actionCategory": {
            "value": ""
        },
        "actionType": {
            "value": "passive"
        },
        "actions": {
            "value": ""
        },
        "description": {
            "chat": "",
            "unidentified": "",
            "value": "<p><strong>Minor Boon</strong>: You feast on the spoils of life and death. You gain the benefits of the @Compendium[pf2e.ancestryfeatures.Irongut Goblin]{Irongut Goblin} heritage, regardless of your ancestry. If you already have this heritage, the circumstance bonus increases to +4.</p>"
        },
        "featType": {
            "value": "deityboon"
        },
        "level": {
            "value": "0"
        },
        "prerequisites": {
            "value": []
        },
        "rules": [],
        "source": {
            "value": ""
        },
        "traits": {
            "custom": "",
            "rarity": {
                "value": "common"
            },
            "selected": {},
            "value": []
        }
    },
    "effects": [],
    "flags": {},
    "img": "systems/pf2e/icons/deity/Urgathoa.webp",
    "name": "Urgathoa - Minor Boon",
    "permission": {
        "default": 0
    },
    "type": "feat"
}
