{
    "_id": "eVRjDKt0N0qSmpCn",
    "data": {
        "actionCategory": {
            "value": ""
        },
        "actionType": {
            "value": "passive"
        },
        "actions": {
            "value": ""
        },
        "description": {
            "chat": "",
            "unidentified": "",
            "value": "<p><strong>Major Curse</strong>: Urgathoa teaches you that pointless lives in slavery to death and morality are bound to end in tragedy.</p>\n<p>You develop an incurable wasting disease that leaves you @Compendium[pf2e.conditionitems.Clumsy]{Clumsy}y 2, @Compendium[pf2e.conditionitems.Enfeebled]{Enfeebled} 2, and unable to move except by @Compendium[pf2e.actionspf2e.Crawl]{Crawling}. This disease never progresses further to kill you, but it passes to your friends and loved ones merely by sight, wasting them away unto death before your eyes and causing them to rise as undead to haunt you.</p>"
        },
        "featType": {
            "value": "curse"
        },
        "level": {
            "value": "0"
        },
        "prerequisites": {
            "value": []
        },
        "rules": [],
        "source": {
            "value": ""
        },
        "traits": {
            "custom": "",
            "rarity": {
                "value": "common"
            },
            "selected": {},
            "value": []
        }
    },
    "effects": [],
    "flags": {},
    "img": "systems/pf2e/icons/deity/Urgathoa.webp",
    "name": "Urgathoa - Major Curse",
    "permission": {
        "default": 0
    },
    "type": "feat"
}
