{
    "_id": "ceEA7nBGNmoR8Sjj",
    "data": {
        "description": {
            "value": "<p>Granted by failing the save against @Compendium[pf2e.spells-srd.Litany of Self-Interest]{Litany of Self-Interest}.</p>"
        },
        "duration": {
            "expiry": "turn-start",
            "sustained": false,
            "unit": "rounds",
            "value": 1
        },
        "level": {
            "value": 5
        },
        "rules": [
            {
                "key": "PF2E.RuleElement.TokenEffectIcon"
            },
            {
                "key": "PF2E.RuleElement.FlatModifier",
                "label": "Litany of Self-Interest",
                "selector": "attack",
                "type": "status",
                "value": 2
            },
            {
                "key": "PF2E.RuleElement.FlatModifier",
                "label": "Litany of Self-Interest",
                "selector": "perception",
                "type": "status",
                "value": 2
            },
            {
                "key": "PF2E.RuleElement.FlatModifier",
                "label": "Litany of Self-Interest",
                "selector": "saving-throw",
                "type": "status",
                "value": 2
            },
            {
                "key": "PF2E.RuleElement.FlatModifier",
                "label": "Litany of Self-Interest",
                "selector": "skill-check",
                "type": "status",
                "value": 2
            }
        ],
        "source": {
            "value": ""
        },
        "start": {
            "initiative": null,
            "value": 0
        },
        "target": null,
        "traits": {
            "custom": "",
            "rarity": {
                "value": "common"
            },
            "value": []
        }
    },
    "effects": [],
    "flags": {},
    "img": "systems/pf2e/icons/spells/litany-of-self-interest.webp",
    "name": "Spell Effect: Litany of Self-Interest",
    "permission": {
        "default": 0
    },
    "type": "effect"
}
