{
    "_id": "6zo2PJGYoig7nFpR",
    "data": {
        "actionCategory": {
            "value": ""
        },
        "actionType": {
            "value": "passive"
        },
        "actions": {
            "value": ""
        },
        "description": {
            "chat": "",
            "unidentified": "",
            "value": "<p><span style=\"color: #191813; font-family: Roboto, system, -apple-system, sans-serif; font-size: 13px;\">When using advanced alchemy to make poisons during your daily preparations, you can spend one batch of reagents to create three poisons in any combination, instead of just two of the same poison.</span></p>"
        },
        "featType": {
            "value": "classfeature"
        },
        "level": {
            "value": "5"
        },
        "prerequisites": {
            "value": []
        },
        "rules": [],
        "source": {
            "value": ""
        },
        "traits": {
            "custom": "",
            "rarity": {
                "value": "common"
            },
            "value": [
                "alchemist"
            ]
        }
    },
    "effects": [],
    "flags": {},
    "img": "systems/pf2e/icons/features/classes/field-discovery-chirurgeon.webp",
    "name": "Field Discovery (Toxicologist)",
    "permission": {
        "default": 0
    },
    "type": "feat"
}
