{
    "_id": "BZnqKnqKVImjSIFE",
    "data": {
        "actionCategory": {
            "value": ""
        },
        "actionType": {
            "value": "passive"
        },
        "actions": {
            "value": ""
        },
        "description": {
            "chat": "",
            "unidentified": "",
            "value": "<p>Your rage makes it difficult to control you. Your proficiency rank for Will saves increases to master. When you roll a success on a Will save, you get a critical success instead.</p>"
        },
        "featType": {
            "value": "classfeature"
        },
        "level": {
            "value": 15
        },
        "location": "",
        "prerequisites": {
            "value": []
        },
        "rules": [
            {
                "key": "PF2E.RuleElement.Note",
                "selector": "will",
                "text": "<p class='compact-text'><strong>{item|name}</strong> When you roll a success on a Will save, you get a critical success instead.</p>"
            }
        ],
        "source": {
            "value": ""
        },
        "traits": {
            "custom": "",
            "rarity": {
                "value": "common"
            },
            "value": [
                "barbarian"
            ]
        }
    },
    "effects": [
        {
            "_id": "fI3Nglqrn6s1dtap",
            "changes": [
                {
                    "key": "data.saves.will.rank",
                    "mode": 4,
                    "value": 3
                }
            ],
            "disabled": false,
            "duration": {
                "rounds": null,
                "seconds": null,
                "startRound": null,
                "startTime": null,
                "startTurn": null,
                "turns": null
            },
            "flags": {},
            "icon": "systems/pf2e/icons/features/classes/indomitable-will.webp",
            "label": "Indomitable Will",
            "origin": "",
            "tint": "",
            "transfer": true
        }
    ],
    "flags": {},
    "img": "systems/pf2e/icons/features/classes/indomitable-will.webp",
    "name": "Indomitable Will",
    "permission": {
        "default": 0
    },
    "type": "feat"
}
