{
    "_id": "u4nlOzPj2WHkIj9l",
    "data": {
        "actionCategory": {
            "value": ""
        },
        "actionType": {
            "value": "passive"
        },
        "actions": {
            "value": ""
        },
        "description": {
            "chat": "",
            "unidentified": "",
            "value": "<p>You revere plants and the bounty of nature, acting as both a gardener and warden for the wilderness, teaching sustainable techniques to communities, and helping areas regrow after disasters or negligent humanoid expansion. You are trained in Diplomacy.</p>\n<p>You also gain the @Compendium[pf2e.feats-srd.Leshy Familiar]{Leshy Familiar} druid feat. You gain the @Compendium[pf2e.spells-srd.Goodberry]{Goodberry} order spell, and you increase the number of Focus Points in your focus pool by 1. Committing wanton cruelty to plants or killing plants unnecessarily is anathema to your order.</p>\n<p>(This doesn't prevent you from defending yourself against plants or harvesting them when necessary for survival.)</p>"
        },
        "featType": {
            "value": "classfeature"
        },
        "level": {
            "value": 1
        },
        "location": "",
        "prerequisites": {
            "value": []
        },
        "rules": [],
        "source": {
            "value": ""
        },
        "traits": {
            "custom": "",
            "rarity": {
                "value": "common"
            },
            "value": [
                "druid"
            ]
        }
    },
    "effects": [
        {
            "_id": "FYQim5Zz4UHnlZlA",
            "changes": [
                {
                    "key": "data.skills.dip.rank",
                    "mode": 4,
                    "value": 1
                }
            ],
            "disabled": false,
            "duration": {
                "rounds": null,
                "seconds": null,
                "startRound": null,
                "startTime": null,
                "startTurn": null,
                "turns": null
            },
            "flags": {},
            "icon": "systems/pf2e/icons/features/classes/leaf.webp",
            "label": "Leaf Order",
            "origin": "",
            "tint": "",
            "transfer": true
        }
    ],
    "flags": {},
    "img": "systems/pf2e/icons/features/classes/leaf.webp",
    "name": "Leaf Order",
    "permission": {
        "default": 0
    },
    "type": "feat"
}
