{
    "_id": "EJzjY6AIsTYqW0ee",
    "data": {
        "actionCategory": {
            "value": ""
        },
        "actionType": {
            "value": "passive"
        },
        "actions": {
            "value": ""
        },
        "description": {
            "chat": "",
            "unidentified": "",
            "value": "<p>Your reflexes are lightning fast. Your proficiency rank for Reflex saves increases to expert.</p>"
        },
        "featType": {
            "value": "classfeature"
        },
        "level": {
            "value": 13
        },
        "location": "",
        "prerequisites": {
            "value": []
        },
        "rules": [
            {
                "key": "PF2E.RuleElement.Note",
                "predicate": {
                    "all": [
                        "flames-mystery"
                    ]
                },
                "selector": "reflex",
                "text": "<p class='compact-text'><strong>{item|name}</strong> When you roll a success on a Reflex save, you get a critical success instead.</p>"
            }
        ],
        "source": {
            "value": ""
        },
        "traits": {
            "custom": "",
            "rarity": {
                "value": "common"
            },
            "value": [
                "oracle"
            ]
        }
    },
    "effects": [
        {
            "_id": "vTTVOSARbsnK6cBd",
            "changes": [
                {
                    "key": "data.saves.reflex.rank",
                    "mode": 4,
                    "value": 2
                }
            ],
            "disabled": false,
            "duration": {
                "rounds": null,
                "seconds": null,
                "startRound": null,
                "startTime": null,
                "startTurn": null,
                "turns": null
            },
            "flags": {},
            "icon": "systems/pf2e/icons/features/classes/lightning-reflexes.webp",
            "label": "Lightning Reflexes",
            "origin": "",
            "tint": "",
            "transfer": true
        }
    ],
    "flags": {},
    "img": "systems/pf2e/icons/features/classes/lightning-reflexes.webp",
    "name": "Lightning Reflexes (Level 13)",
    "permission": {
        "default": 0
    },
    "type": "feat"
}
