{
    "_id": "zGxO2cETUsXuvqRu",
    "data": {
        "actionCategory": {
            "value": ""
        },
        "actionType": {
            "value": "passive"
        },
        "actions": {
            "value": ""
        },
        "description": {
            "value": "<p><strong>Favored Weapon</strong>: @Compendium[pf2e.equipment-srd.Glaive]{Glaive}</p>\n<p>The Order of the Pyre is dedicated to eliminating those faiths and beliefs they consider to be a threat to the Inner Sea region. They are particularly keen on stamping out dangerous cults.</p>\n<hr />\n<p><strong>Lesser Benefit</strong>: @Compendium[pf2e.feats-srd.Righteous Resistance]{Righteous Resistance}</p>\n<p><strong>Greater Benefit</strong>: @Compendium[pf2e.feats-srd.Spiritual Disruption]{Spiritual Disruption}</p>"
        },
        "featType": {
            "value": "classfeature"
        },
        "level": {
            "value": 0
        },
        "location": "",
        "prerequisites": {
            "value": []
        },
        "rules": [],
        "source": {
            "value": ""
        },
        "traits": {
            "custom": "",
            "rarity": {
                "value": "common"
            },
            "value": []
        }
    },
    "effects": [],
    "flags": {},
    "img": "systems/pf2e/icons/default-icons/feat.svg",
    "name": "Order of the Pyre",
    "permission": {
        "default": 0
    },
    "type": "feat"
}
