{
    "_id": "uPeDOylL6zsZKSIs",
    "data": {
        "abilities": {
            "cha": {
                "min": 3,
                "mod": null,
                "value": 10
            },
            "con": {
                "min": 3,
                "mod": 0,
                "value": 10
            },
            "dex": {
                "min": 3,
                "mod": 2,
                "value": 10
            },
            "int": {
                "min": 3,
                "mod": -5,
                "value": 10
            },
            "str": {
                "min": 3,
                "mod": "+3",
                "value": 10
            },
            "wis": {
                "min": 3,
                "mod": 0,
                "value": 10
            }
        },
        "attributes": {
            "ac": {
                "check": 0,
                "details": "",
                "dex": 0,
                "item": 0,
                "min": 0,
                "value": "12"
            },
            "allSaves": {
                "value": ""
            },
            "bonusEncumbranceBulk": 0,
            "bonusLimitBulk": 0,
            "flatbonushp": 0,
            "flatbonussp": 0,
            "hp": {
                "details": "negative healing",
                "max": 20,
                "min": 0,
                "temp": 0,
                "value": 20
            },
            "init": {
                "bonus": 0,
                "value": 0
            },
            "initiative": {
                "ability": "",
                "circumstance": 0,
                "status": 0
            },
            "levelbonushp": 0,
            "levelbonussp": 0,
            "perception": {
                "ability": "wis",
                "item": 0,
                "rank": 0,
                "value": 0
            },
            "resolve": {
                "value": 0
            },
            "shield": {
                "ac": 0,
                "brokenThreshold": 0,
                "hardness": 0,
                "max": 0,
                "min": 0,
                "value": 0
            },
            "sp": {
                "details": "",
                "max": 0,
                "min": 0,
                "value": 0
            },
            "speed": {
                "otherSpeeds": [],
                "value": "25 feet"
            }
        },
        "currency": {
            "cp": {
                "value": 0
            },
            "gp": {
                "value": 0
            },
            "pp": {
                "value": 0
            },
            "sp": {
                "value": 0
            }
        },
        "customModifiers": {},
        "details": {
            "alignment": {
                "value": "NE"
            },
            "ancestry": {
                "value": ""
            },
            "biography": {
                "public": "",
                "value": ""
            },
            "class": {
                "value": ""
            },
            "creatureType": "",
            "deity": {
                "image": "systems/pf2e/assets/sheet/deity.webp",
                "value": ""
            },
            "flavourText": "",
            "heritage": {
                "value": ""
            },
            "keyability": {
                "value": "str"
            },
            "level": {
                "min": 1,
                "value": 1
            },
            "recallKnowledgeText": "",
            "sidebarText": "",
            "source": {
                "value": ""
            }
        },
        "martial": {
            "advanced": {
                "rank": 0,
                "value": 0
            },
            "heavy": {
                "rank": 0,
                "value": 0
            },
            "light": {
                "rank": 0,
                "value": 0
            },
            "martial": {
                "rank": 0,
                "value": 0
            },
            "medium": {
                "rank": 0,
                "value": 0
            },
            "simple": {
                "rank": 0,
                "value": 0
            },
            "unarmed": {
                "rank": 0,
                "value": 0
            },
            "unarmored": {
                "rank": 0,
                "value": 0
            }
        },
        "saves": {
            "fortitude": {
                "ability": "con",
                "item": 0,
                "rank": 0,
                "saveDetail": "",
                "value": 5
            },
            "reflex": {
                "ability": "dex",
                "item": 0,
                "rank": 0,
                "saveDetail": "",
                "value": 3
            },
            "will": {
                "ability": "wis",
                "item": 0,
                "rank": 0,
                "saveDetail": "",
                "value": 3
            }
        },
        "schema": {
            "version": {
                "value": ""
            }
        },
        "spells": {
            "spell0": {
                "max": 0
            },
            "spell1": {
                "max": 0
            },
            "spell10": {
                "max": 0
            },
            "spell11": {
                "max": 0
            },
            "spell2": {
                "max": 0
            },
            "spell3": {
                "max": 0
            },
            "spell4": {
                "max": 0
            },
            "spell5": {
                "max": 0
            },
            "spell6": {
                "max": 0
            },
            "spell7": {
                "max": 0
            },
            "spell8": {
                "max": 0
            },
            "spell9": {
                "max": 0
            }
        },
        "statusEffects": [],
        "traits": {
            "attitude": {
                "value": "hostile"
            },
            "ci": [],
            "di": {
                "custom": "",
                "value": [
                    "death effects",
                    "disease",
                    "mental",
                    "paralyzed",
                    "poison"
                ]
            },
            "dr": [],
            "dv": [
                {
                    "exceptions": "",
                    "label": "Positive",
                    "type": "positive",
                    "value": "5"
                },
                {
                    "exceptions": "",
                    "label": "Slashing",
                    "type": "slashing",
                    "value": "5"
                }
            ],
            "languages": {
                "custom": "",
                "selected": [],
                "value": []
            },
            "rarity": {
                "value": "uncommon"
            },
            "senses": {
                "value": "darkvision"
            },
            "size": {
                "value": "sm"
            },
            "traits": {
                "custom": "",
                "value": [
                    "mindless",
                    "undead",
                    "zombie"
                ]
            }
        }
    },
    "effects": [],
    "flags": {},
    "img": "systems/pf2e/icons/default-icons/npc.svg",
    "items": [
        {
            "_id": "tNetWKZ95MXVBhYE",
            "data": {
                "attack": {
                    "value": ""
                },
                "attackEffects": {
                    "custom": "",
                    "value": [
                        "Grab"
                    ]
                },
                "baseItem": null,
                "bonus": {
                    "value": 7
                },
                "brokenThreshold": {
                    "value": 0
                },
                "bulkCapacity": {
                    "value": ""
                },
                "collapsed": {
                    "value": false
                },
                "containerId": {
                    "value": ""
                },
                "damage": {
                    "damageType": "bludgeoning",
                    "die": ""
                },
                "damageRolls": {
                    "0": {
                        "damage": "1d6+3",
                        "damageType": "bludgeoning"
                    }
                },
                "description": {
                    "value": ""
                },
                "equipped": {
                    "value": false
                },
                "equippedBulk": {
                    "value": ""
                },
                "hardness": {
                    "value": 0
                },
                "hp": {
                    "value": 0
                },
                "invested": {
                    "value": false
                },
                "maxHp": {
                    "value": 0
                },
                "negateBulk": {
                    "value": "0"
                },
                "preciousMaterial": {
                    "value": ""
                },
                "preciousMaterialGrade": {
                    "value": ""
                },
                "price": {
                    "value": 0
                },
                "quantity": {
                    "value": 1
                },
                "rules": [],
                "size": {
                    "value": "med"
                },
                "slug": null,
                "source": {
                    "value": ""
                },
                "stackGroup": {
                    "value": ""
                },
                "traits": {
                    "custom": "",
                    "rarity": {
                        "value": "common"
                    },
                    "value": []
                },
                "weaponType": {
                    "value": "melee"
                },
                "weight": {
                    "value": 0
                }
            },
            "effects": [],
            "flags": {},
            "img": "systems/pf2e/icons/default-icons/mystery-man.svg",
            "name": "Fist",
            "sort": 100000,
            "type": "melee"
        },
        {
            "_id": "p85ZUnF3OvuizDNc",
            "data": {
                "actionCategory": {
                    "value": "interaction"
                },
                "actionType": {
                    "value": "passive"
                },
                "actions": {
                    "value": ""
                },
                "description": {
                    "value": "<p>When the goblin zombie is reduced to 0 Hit Points, an alchemical device jammed in its belly ruptures. Roll 1d4 and consult the following for the effect: 1 creatures in a 5-foot emanation take [[/r 1d3 # persistent acid damage]] persistent acid damage; 2 creatures in a 5-foot emanation take [[/r 1d4 # fire damage]] fire damage (<span data-pf2-saving-throw=\"reflex\" data-pf2-dc=\"16\" data-pf2-traits=\"damaging-effect\" data-pf2-label=\"Alchemical Rupture DC\" data-pf2-show-dc=\"gm\">basic Reflex</span> save); 3 creatures in a 5-foot emanation take [[/r 1d4 # poison damage]] poison damage (<span data-pf2-saving-throw=\"fortitude\" data-pf2-dc=\"16\" data-pf2-traits=\"damaging-effect\" data-pf2-label=\"Alchemical Rupture DC\" data-pf2-show-dc=\"gm\">basic Fortitude</span> save); 4 smoke billows out in a 5-foot emanation for 1 round (creatures in that area are concealed, and all other creatures are concealed to them).</p>"
                },
                "requirements": {
                    "value": ""
                },
                "rules": [],
                "slug": null,
                "source": {
                    "value": ""
                },
                "traits": {
                    "custom": "",
                    "rarity": {
                        "value": "common"
                    },
                    "value": []
                },
                "trigger": {
                    "value": ""
                },
                "weapon": {
                    "value": ""
                }
            },
            "effects": [],
            "flags": {},
            "img": "systems/pf2e/icons/default-icons/mystery-man.svg",
            "name": "Alchemical Rupture",
            "sort": 200000,
            "type": "action"
        },
        {
            "_id": "c712UIScqgkP7a8C",
            "data": {
                "actionCategory": {
                    "value": "offensive"
                },
                "actionType": {
                    "value": "action"
                },
                "actions": {
                    "value": "1"
                },
                "description": {
                    "value": "<p><strong>Requirement</strong> The goblin zombie has a creature grabbed or restrained <br /><strong>Effect</strong> The goblin zombie makes a jaws unarmed melee Strike against the grabbed or restrained creature with an attack modifier of +7 that deals [[/r 1d8+3 # piercing damage]] piercing damage.</p>"
                },
                "requirements": {
                    "value": ""
                },
                "rules": [],
                "slug": null,
                "source": {
                    "value": ""
                },
                "traits": {
                    "custom": "",
                    "rarity": {
                        "value": "common"
                    },
                    "value": [
                        "attack"
                    ]
                },
                "trigger": {
                    "value": ""
                },
                "weapon": {
                    "value": ""
                }
            },
            "effects": [],
            "flags": {},
            "img": "systems/pf2e/icons/actions/OneAction.webp",
            "name": "Jaws",
            "sort": 300000,
            "type": "action"
        },
        {
            "_id": "XybmG7GEjQNta8k6",
            "data": {
                "description": {
                    "value": ""
                },
                "item": {
                    "value": 0
                },
                "mod": {
                    "value": 3
                },
                "proficient": {
                    "value": 0
                },
                "rules": [],
                "slug": null,
                "source": {
                    "value": ""
                },
                "traits": {
                    "custom": "",
                    "rarity": {
                        "value": "common"
                    },
                    "value": []
                }
            },
            "effects": [],
            "flags": {},
            "img": "systems/pf2e/icons/default-icons/lore.svg",
            "name": "Acrobatics",
            "sort": 400000,
            "type": "lore"
        },
        {
            "_id": "d2xCVbLeyBRRNRB8",
            "data": {
                "description": {
                    "value": ""
                },
                "item": {
                    "value": 0
                },
                "mod": {
                    "value": 4
                },
                "proficient": {
                    "value": 0
                },
                "rules": [],
                "slug": null,
                "source": {
                    "value": ""
                },
                "traits": {
                    "custom": "",
                    "rarity": {
                        "value": "common"
                    },
                    "value": []
                }
            },
            "effects": [],
            "flags": {},
            "img": "systems/pf2e/icons/default-icons/lore.svg",
            "name": "Athletics",
            "sort": 500000,
            "type": "lore"
        }
    ],
    "name": "Goblin Zombie",
    "permission": {
        "default": 0
    },
    "token": {
        "actorId": "uPeDOylL6zsZKSIs",
        "actorLink": false,
        "bar1": {
            "attribute": "attributes.hp"
        },
        "bar2": {},
        "brightLight": 0,
        "brightSight": 0,
        "dimLight": 0,
        "dimSight": 0,
        "displayBars": 20,
        "displayName": 20,
        "disposition": -1,
        "flags": {},
        "height": 1,
        "img": "systems/pf2e/icons/default-icons/npc.svg",
        "lightAlpha": 1,
        "lightAngle": 360,
        "lightAnimation": {
            "intensity": 5,
            "speed": 5
        },
        "lockRotation": false,
        "name": "Goblin Zombie",
        "randomImg": false,
        "rotation": 0,
        "scale": 1,
        "sightAngle": 360,
        "tint": null,
        "vision": false,
        "width": 1
    },
    "type": "npc"
}
