{
    "_id": "FJr7Rc9MQEwxjAcz",
    "data": {
        "abilities": {
            "cha": {
                "min": 3,
                "mod": 2,
                "value": 14
            },
            "con": {
                "min": 3,
                "mod": 3,
                "value": 16
            },
            "dex": {
                "min": 3,
                "mod": 1,
                "value": 12
            },
            "int": {
                "min": 3,
                "mod": 2,
                "value": 14
            },
            "str": {
                "min": 3,
                "mod": "+3",
                "value": 16
            },
            "wis": {
                "min": 3,
                "mod": 4,
                "value": 18
            }
        },
        "attributes": {
            "ac": {
                "check": 0,
                "details": "",
                "dex": 0,
                "item": 0,
                "min": 0,
                "value": "21"
            },
            "allSaves": {
                "value": ""
            },
            "ancestryhp": 0,
            "bonusEncumbranceBulk": 0,
            "bonusLimitBulk": 0,
            "classDC": {
                "ability": "str",
                "breakdown": "",
                "item": 0,
                "rank": 0,
                "value": 0
            },
            "classhp": 0,
            "flatbonushp": 0,
            "flatbonussp": 0,
            "hp": {
                "details": "(negative healing)",
                "max": 77,
                "min": 0,
                "temp": 0,
                "value": 77
            },
            "init": {
                "bonus": 0,
                "value": 0
            },
            "initiative": {
                "ability": "",
                "circumstance": 0,
                "status": 0
            },
            "levelbonushp": 0,
            "levelbonussp": 0,
            "perception": {
                "ability": "wis",
                "breakdown": "",
                "item": 0,
                "rank": 0,
                "value": 13
            },
            "resolve": {
                "value": 0
            },
            "shield": {
                "ac": 0,
                "brokenThreshold": 0,
                "hardness": 0,
                "max": 0,
                "min": 0,
                "value": 0
            },
            "sp": {
                "details": "",
                "max": 0,
                "min": 0,
                "value": 0
            },
            "speed": {
                "otherSpeeds": [],
                "value": "25"
            }
        },
        "currency": {
            "cp": {
                "value": 0
            },
            "gp": {
                "value": 0
            },
            "pp": {
                "value": 0
            },
            "sp": {
                "value": 0
            }
        },
        "customModifiers": {},
        "details": {
            "alignment": {
                "value": "NE"
            },
            "ancestry": {
                "value": "Urdefhan"
            },
            "biography": {
                "public": "",
                "value": ""
            },
            "class": {
                "value": ""
            },
            "creatureType": "Humanoid",
            "deity": {
                "image": "systems/pf2e/assets/sheet/deity.webp",
                "value": ""
            },
            "flavorText": "Urdefhan spellcasters with a knack for the divine are invariably unholy worshippers of daemonkind, typically taking on one of Abaddon's Four Horsemen of the Apocalypse as their patron deity. With their unholy gifts, these urdefhan tormentors summon daemons into battle and bolster their allies with profane magic, preferring to stick to the sidelines rather than enter the fray directly.<br /><br />",
            "flavourText": "",
            "heritage": {
                "value": ""
            },
            "keyability": {
                "value": "str"
            },
            "level": {
                "min": 1,
                "value": 5
            },
            "recallKnowledgeText": "Recall Knowledge - Humanoid : DC 20",
            "sidebarText": "",
            "source": {
                "value": "Bestiary 2 pg. 273"
            }
        },
        "items": {
            "0": {
                "data": {
                    "slots": {
                        "slot1": {
                            "max": 0,
                            "value": 0
                        },
                        "slot2": {
                            "max": 0,
                            "value": 0
                        },
                        "slot3": {
                            "max": 0,
                            "value": 0
                        }
                    },
                    "spelldc": {
                        "dc": 23,
                        "value": 15
                    }
                }
            },
            "1": {
                "data": {
                    "spelldc": {
                        "dc": 23,
                        "value": 13
                    }
                }
            },
            "BZPlONnpK4OvYZZs": {
                "data": {
                    "spelldc": {
                        "dc": 23,
                        "value": 13
                    }
                }
            },
            "i3JP3msktn7Ld1pK": {
                "data": {
                    "slots": {
                        "slot1": {
                            "max": 0
                        },
                        "slot2": {
                            "max": 0
                        },
                        "slot3": {
                            "max": 0
                        }
                    },
                    "spelldc": {
                        "dc": 23,
                        "value": 15
                    }
                }
            }
        },
        "martial": {
            "advanced": {
                "breakdown": "",
                "rank": 0,
                "value": 0
            },
            "heavy": {
                "breakdown": "",
                "rank": 0,
                "value": 0
            },
            "light": {
                "breakdown": "",
                "rank": 0,
                "value": 0
            },
            "martial": {
                "breakdown": "",
                "rank": 0,
                "value": 0
            },
            "medium": {
                "breakdown": "",
                "rank": 0,
                "value": 0
            },
            "simple": {
                "breakdown": "",
                "rank": 0,
                "value": 0
            },
            "unarmed": {
                "breakdown": "",
                "rank": 0,
                "value": 0
            },
            "unarmored": {
                "breakdown": "",
                "rank": 0,
                "value": 0
            }
        },
        "saves": {
            "fortitude": {
                "ability": "con",
                "breakdown": "",
                "item": 0,
                "rank": 0,
                "saveDetail": "",
                "value": 11
            },
            "reflex": {
                "ability": "dex",
                "breakdown": "",
                "item": 0,
                "rank": 0,
                "saveDetail": "",
                "value": 10
            },
            "will": {
                "ability": "wis",
                "breakdown": "",
                "item": 0,
                "rank": 0,
                "saveDetail": "",
                "value": 15
            }
        },
        "schema": {
            "version": {
                "value": ""
            }
        },
        "skills": {
            "acr": {
                "ability": "dex",
                "armor": 1,
                "breakdown": "",
                "item": 0,
                "mod": 0,
                "rank": 0,
                "value": 0
            },
            "arc": {
                "ability": "int",
                "breakdown": "",
                "item": 0,
                "mod": 0,
                "rank": 0,
                "value": 0
            },
            "ath": {
                "ability": "str",
                "armor": 1,
                "breakdown": "",
                "item": 0,
                "mod": 0,
                "rank": 0,
                "value": 0
            },
            "cra": {
                "ability": "int",
                "breakdown": "",
                "item": 0,
                "mod": 0,
                "rank": 0,
                "value": 0
            },
            "dec": {
                "ability": "cha",
                "breakdown": "",
                "item": 0,
                "mod": 0,
                "rank": 0,
                "value": 0
            },
            "dip": {
                "ability": "cha",
                "breakdown": "",
                "item": 0,
                "mod": 0,
                "rank": 0,
                "value": 0
            },
            "itm": {
                "ability": "cha",
                "breakdown": "",
                "item": 0,
                "mod": 0,
                "rank": 0,
                "value": 0
            },
            "med": {
                "ability": "wis",
                "breakdown": "",
                "item": 0,
                "mod": 0,
                "rank": 0,
                "value": 0
            },
            "nat": {
                "ability": "wis",
                "breakdown": "",
                "item": 0,
                "mod": 0,
                "rank": 0,
                "value": 0
            },
            "occ": {
                "ability": "int",
                "breakdown": "",
                "item": 0,
                "mod": 0,
                "rank": 0,
                "value": 0
            },
            "prf": {
                "ability": "cha",
                "breakdown": "",
                "item": 0,
                "mod": 0,
                "rank": 0,
                "value": 0
            },
            "rel": {
                "ability": "wis",
                "breakdown": "",
                "item": 0,
                "mod": 0,
                "rank": 0,
                "value": 0
            },
            "soc": {
                "ability": "int",
                "breakdown": "",
                "item": 0,
                "mod": 0,
                "rank": 0,
                "value": 0
            },
            "ste": {
                "ability": "dex",
                "armor": 1,
                "breakdown": "",
                "item": 0,
                "mod": 0,
                "rank": 0,
                "value": 0
            },
            "sur": {
                "ability": "wis",
                "breakdown": "",
                "item": 0,
                "mod": 0,
                "rank": 0,
                "value": 0
            },
            "thi": {
                "ability": "dex",
                "armor": 1,
                "breakdown": "",
                "item": 0,
                "mod": 0,
                "rank": 0,
                "value": 0
            }
        },
        "spells": {
            "spell0": {
                "max": 0
            },
            "spell1": {
                "max": 0
            },
            "spell10": {
                "max": 0
            },
            "spell11": {
                "max": 0
            },
            "spell2": {
                "max": 0
            },
            "spell3": {
                "max": 0
            },
            "spell4": {
                "max": 0
            },
            "spell5": {
                "max": 0
            },
            "spell6": {
                "max": 0
            },
            "spell7": {
                "max": 0
            },
            "spell8": {
                "max": 0
            },
            "spell9": {
                "max": 0
            }
        },
        "statusEffects": [],
        "traits": {
            "attitude": {
                "value": "hostile"
            },
            "ci": [],
            "di": {
                "custom": "",
                "value": [
                    "death effects",
                    "disease",
                    "fear effects"
                ]
            },
            "dr": [],
            "dv": [
                {
                    "label": "Positive",
                    "type": "positive",
                    "value": "5"
                }
            ],
            "languages": {
                "custom": "",
                "selected": [],
                "value": [
                    "aklo",
                    "daemonic",
                    "undercommon"
                ]
            },
            "rarity": {
                "value": "common"
            },
            "senses": {
                "value": "greater darkvision"
            },
            "size": {
                "value": "med"
            },
            "traits": {
                "custom": "",
                "value": [
                    "humanoid",
                    "urdefhan"
                ]
            }
        }
    },
    "effects": [],
    "flags": {},
    "img": "systems/pf2e/icons/default-icons/npc.svg",
    "items": [
        {
            "_id": "i3JP3msktn7Ld1pK",
            "data": {
                "ability": {
                    "value": ""
                },
                "description": {
                    "chat": "",
                    "unidentified": "",
                    "value": ""
                },
                "displayLevel": {},
                "displayLevels": {},
                "focus": {
                    "points": 1,
                    "pool": 1
                },
                "item": {
                    "value": 0
                },
                "prepared": {
                    "value": "Innate"
                },
                "proficiency": {
                    "value": 0
                },
                "rules": [],
                "showUnpreparedSpells": {
                    "value": false
                },
                "signatureSpells": {
                    "value": []
                },
                "slots": {
                    "slot0": {
                        "max": 0,
                        "prepared": [],
                        "value": 0
                    },
                    "slot1": {
                        "max": 0,
                        "prepared": [],
                        "value": 0
                    },
                    "slot10": {
                        "max": 0,
                        "prepared": [],
                        "value": 0
                    },
                    "slot11": {
                        "max": 0,
                        "prepared": [],
                        "value": 0
                    },
                    "slot2": {
                        "max": 0,
                        "prepared": [],
                        "value": 0
                    },
                    "slot3": {
                        "max": 0,
                        "prepared": [],
                        "value": 0
                    },
                    "slot4": {
                        "max": 0,
                        "prepared": [],
                        "value": 0
                    },
                    "slot5": {
                        "max": 0,
                        "prepared": [],
                        "value": 0
                    },
                    "slot6": {
                        "max": 0,
                        "prepared": [],
                        "value": 0
                    },
                    "slot7": {
                        "max": 0,
                        "prepared": [],
                        "value": 0
                    },
                    "slot8": {
                        "max": 0,
                        "prepared": [],
                        "value": 0
                    },
                    "slot9": {
                        "max": 0,
                        "prepared": [],
                        "value": 0
                    }
                },
                "slug": null,
                "source": {
                    "value": ""
                },
                "spelldc": {
                    "dc": "23",
                    "item": 0,
                    "mod": 0,
                    "value": 15
                },
                "tradition": {
                    "value": "divine"
                },
                "traits": {
                    "custom": "",
                    "rarity": {
                        "value": "common"
                    },
                    "value": []
                },
                "usage": {
                    "value": "held-in-one-hand"
                }
            },
            "effects": [],
            "flags": {},
            "img": "systems/pf2e/icons/default-icons/mystery-man.svg",
            "name": "Divine Innate Spells",
            "sort": 100000,
            "type": "spellcastingEntry"
        },
        {
            "_id": "BZPlONnpK4OvYZZs",
            "data": {
                "ability": {
                    "value": ""
                },
                "description": {
                    "chat": "",
                    "unidentified": "",
                    "value": ""
                },
                "displayLevel": {},
                "displayLevels": {},
                "focus": {
                    "points": 1,
                    "pool": 1
                },
                "item": {
                    "value": 0
                },
                "prepared": {
                    "value": "Innate"
                },
                "proficiency": {
                    "value": 0
                },
                "rules": [],
                "showUnpreparedSpells": {
                    "value": false
                },
                "signatureSpells": {
                    "value": []
                },
                "slots": {
                    "slot0": {
                        "max": 0,
                        "prepared": [],
                        "value": 0
                    },
                    "slot1": {
                        "max": 0,
                        "prepared": [],
                        "value": 0
                    },
                    "slot10": {
                        "max": 0,
                        "prepared": [],
                        "value": 0
                    },
                    "slot11": {
                        "max": 0,
                        "prepared": [],
                        "value": 0
                    },
                    "slot2": {
                        "max": 0,
                        "prepared": [],
                        "value": 0
                    },
                    "slot3": {
                        "max": 0,
                        "prepared": [],
                        "value": 0
                    },
                    "slot4": {
                        "max": 0,
                        "prepared": [],
                        "value": 0
                    },
                    "slot5": {
                        "max": 0,
                        "prepared": [],
                        "value": 0
                    },
                    "slot6": {
                        "max": 0,
                        "prepared": [],
                        "value": 0
                    },
                    "slot7": {
                        "max": 0,
                        "prepared": [],
                        "value": 0
                    },
                    "slot8": {
                        "max": 0,
                        "prepared": [],
                        "value": 0
                    },
                    "slot9": {
                        "max": 0,
                        "prepared": [],
                        "value": 0
                    }
                },
                "slug": null,
                "source": {
                    "value": ""
                },
                "spelldc": {
                    "dc": "23",
                    "item": 0,
                    "mod": 0,
                    "value": 13
                },
                "tradition": {
                    "value": "ritual"
                },
                "traits": {
                    "custom": "",
                    "rarity": {
                        "value": "common"
                    },
                    "value": []
                },
                "usage": {
                    "value": "held-in-one-hand"
                }
            },
            "effects": [],
            "flags": {},
            "img": "systems/pf2e/icons/default-icons/mystery-man.svg",
            "name": "Rituals",
            "sort": 200000,
            "type": "spellcastingEntry"
        },
        {
            "_id": "8lW3t7a7vhVy9IkU",
            "data": {
                "ability": {
                    "value": ""
                },
                "area": {
                    "areaType": "emanation",
                    "value": 30
                },
                "areasize": {
                    "value": "varies"
                },
                "category": {
                    "value": "spell"
                },
                "components": {
                    "value": "varies"
                },
                "cost": {
                    "value": ""
                },
                "damage": {
                    "applyMod": false,
                    "value": "3d8"
                },
                "damageType": {
                    "value": "negative"
                },
                "description": {
                    "chat": "",
                    "unidentified": "",
                    "value": "<p>You channel negative energy to harm the living or heal the undead. If the target is a living creature, you deal 1d8 negative damage to it, and it gets a basic Fortitude save. If the target is a willing undead creature, you restore that amount of Hit Points. The number of actions you spend when Casting this Spell determines its targets, range, area, and other parameters.</p>\n<hr />\n<p><strong>1 Action</strong> (somatic) The spell has a range of touch.</p>\n<p><strong>2 Actions</strong> (verbal, somatic) The spell has a range of 30 feet. If you're healing an undead creature, increase the Hit Points restored by 8.</p>\n<p><strong>3 Actions</strong> (material, verbal, somatic) You disperse negative energy in a 30-foot emanation. This targets all living and undead creatures in the area.</p>\n<hr />\n<p><strong>Heightened (+1)</strong> The amount of healing or damage increases by 1d8, and the extra healing for the 2-action version increases by 8.</p>"
                },
                "duration": {
                    "value": ""
                },
                "hasCounteractCheck": {
                    "value": false
                },
                "level": {
                    "value": 3
                },
                "location": {
                    "value": "i3JP3msktn7Ld1pK"
                },
                "materials": {
                    "value": ""
                },
                "prepared": {
                    "value": ""
                },
                "primarycheck": {
                    "value": ""
                },
                "range": {
                    "value": "varies"
                },
                "rules": [],
                "save": {
                    "basic": "basic",
                    "value": "fortitude"
                },
                "scaling": {
                    "formula": "1d8",
                    "mode": "level1"
                },
                "school": {
                    "value": "necromancy"
                },
                "secondarycasters": {
                    "value": ""
                },
                "secondarycheck": {
                    "value": ""
                },
                "slug": "harm",
                "source": {
                    "value": ""
                },
                "spellType": {
                    "value": "save"
                },
                "sustained": {
                    "value": false
                },
                "target": {
                    "value": "1 living creature or 1 willing undead creature"
                },
                "time": {
                    "value": "1 to 3"
                },
                "traditions": {
                    "value": [
                        "divine"
                    ]
                },
                "traits": {
                    "custom": "",
                    "rarity": {
                        "value": "common"
                    },
                    "value": [
                        "necromancy",
                        "negative"
                    ]
                }
            },
            "effects": [],
            "flags": {
                "core": {
                    "sourceId": "Compendium.pf2e.spells-srd.wdA52JJnsuQWeyqz"
                }
            },
            "img": "systems/pf2e/icons/spells/harm.webp",
            "name": "Harm",
            "sort": 300000,
            "type": "spell"
        },
        {
            "_id": "jOS9PRfyB0vV8k2W",
            "data": {
                "ability": {
                    "value": ""
                },
                "area": {
                    "areaType": "",
                    "value": null
                },
                "areasize": {
                    "value": ""
                },
                "category": {
                    "value": "spell"
                },
                "components": {
                    "value": "somatic, verbal"
                },
                "cost": {
                    "value": ""
                },
                "damage": {
                    "applyMod": false,
                    "value": ""
                },
                "damageType": {
                    "value": ""
                },
                "description": {
                    "chat": "",
                    "unidentified": "",
                    "value": "<p>You block the target's motor impulses before they can leave its mind, threatening to freeze the target in place. The target must attempt a Will save.</p>\n<hr />\n<p><strong>Critical Success</strong> The target is unaffected.</p>\n<p><strong>Success</strong> The target is @Compendium[pf2e.conditionitems.Stunned]{Stunned 1}.</p>\n<p><strong>Failure</strong> The target is @Compendium[pf2e.conditionitems.Paralyzed]{Paralyzed} for 1 round.</p>\n<p><strong>Critical Failure</strong> The target is Paralyzed for 4 rounds. At the end of each of its turns, it can attempt a new Will save to reduce the remaining duration by 1 round, or end it entirely on a critical success.</p>\n<hr />\n<p><strong>Heightened (7th)</strong> You can target up to 10 creatures.</p>"
                },
                "duration": {
                    "value": "varies"
                },
                "hasCounteractCheck": {
                    "value": false
                },
                "level": {
                    "value": 3
                },
                "location": {
                    "value": "i3JP3msktn7Ld1pK"
                },
                "materials": {
                    "value": ""
                },
                "prepared": {
                    "value": ""
                },
                "primarycheck": {
                    "value": ""
                },
                "range": {
                    "value": "30 feet"
                },
                "rules": [],
                "save": {
                    "basic": "",
                    "value": "will"
                },
                "scaling": {
                    "formula": "",
                    "mode": "none"
                },
                "school": {
                    "value": "enchantment"
                },
                "secondarycasters": {
                    "value": ""
                },
                "secondarycheck": {
                    "value": ""
                },
                "slug": "paralyze",
                "source": {
                    "value": ""
                },
                "spellType": {
                    "value": "save"
                },
                "sustained": {
                    "value": false
                },
                "target": {
                    "value": "1 creature"
                },
                "time": {
                    "value": "2"
                },
                "traditions": {
                    "custom": "",
                    "value": [
                        "arcane",
                        "occult"
                    ]
                },
                "traits": {
                    "custom": "",
                    "rarity": {
                        "value": "common"
                    },
                    "value": [
                        "enchantment",
                        "incapacitation",
                        "mental"
                    ]
                }
            },
            "effects": [],
            "flags": {
                "core": {
                    "sourceId": "Compendium.pf2e.spells-srd.DCQHaLrYXMI37dvW"
                }
            },
            "img": "systems/pf2e/icons/spells/paralyze.webp",
            "name": "Paralyze",
            "sort": 400000,
            "type": "spell"
        },
        {
            "_id": "dHdL4mc20NPll2Iv",
            "data": {
                "ability": {
                    "value": ""
                },
                "area": {
                    "areaType": "burst",
                    "value": 20
                },
                "areasize": {
                    "value": "20-foot burst"
                },
                "category": {
                    "value": "spell"
                },
                "components": {
                    "value": "material, somatic, verbal"
                },
                "cost": {
                    "value": ""
                },
                "damage": {
                    "applyMod": false,
                    "value": ""
                },
                "damageType": {
                    "value": ""
                },
                "description": {
                    "chat": "",
                    "unidentified": "",
                    "value": "<p>You create a shroud of darkness that prevents light from penetrating or emanating within the area. Light does not enter the area and any non-magical light sources, such as a torch or lantern, do not emanate any light while inside the area, even if their light radius would extend beyond the darkness. This also suppresses magical light of your darkness spell's level or lower. Light can't pass through, so creatures in the area can't see outside. From outside, it appears as a globe of pure darkness.</p>\n<hr />\n<p><strong>Heightened (4th)</strong> Even creatures with darkvision (but not greater darkvision) can barely see through the darkness. They treat targets seen through the darkness as @Compendium[pf2e.conditionitems.Concealed]{Concealed}.</p>"
                },
                "duration": {
                    "value": "1 minute"
                },
                "hasCounteractCheck": {
                    "value": false
                },
                "level": {
                    "value": 2
                },
                "location": {
                    "value": "i3JP3msktn7Ld1pK"
                },
                "materials": {
                    "value": ""
                },
                "prepared": {
                    "value": ""
                },
                "primarycheck": {
                    "value": ""
                },
                "range": {
                    "value": "120 feet"
                },
                "rules": [],
                "save": {
                    "basic": "",
                    "value": ""
                },
                "scaling": {
                    "formula": "",
                    "mode": "none"
                },
                "school": {
                    "value": "evocation"
                },
                "secondarycasters": {
                    "value": ""
                },
                "secondarycheck": {
                    "value": ""
                },
                "slug": "darkness",
                "source": {
                    "value": ""
                },
                "spellType": {
                    "value": "utility"
                },
                "sustained": {
                    "value": false
                },
                "target": {
                    "value": ""
                },
                "time": {
                    "value": "3"
                },
                "traditions": {
                    "value": [
                        "arcane",
                        "divine",
                        "occult",
                        "primal"
                    ]
                },
                "traits": {
                    "custom": "",
                    "rarity": {
                        "value": "common"
                    },
                    "value": [
                        "darkness",
                        "evocation"
                    ]
                }
            },
            "effects": [],
            "flags": {
                "core": {
                    "sourceId": "Compendium.pf2e.spells-srd.Darkness"
                }
            },
            "img": "systems/pf2e/icons/spells/darkness.webp",
            "name": "Darkness",
            "sort": 500000,
            "type": "spell"
        },
        {
            "_id": "GpkN630aBwqxc2Sr",
            "data": {
                "ability": {
                    "value": ""
                },
                "area": {
                    "areaType": "",
                    "value": null
                },
                "areasize": {
                    "value": ""
                },
                "category": {
                    "value": "spell"
                },
                "components": {
                    "value": "somatic, verbal"
                },
                "cost": {
                    "value": ""
                },
                "damage": {
                    "applyMod": false,
                    "value": ""
                },
                "damageType": {
                    "value": ""
                },
                "description": {
                    "chat": "",
                    "unidentified": "",
                    "value": "<p>You snuff the life out of a creature on the brink of death. The target must attempt a Will save. If this kills it, you gain 10 temporary HP and a +1 status bonus to attack and damage rolls for 10 minutes.</p>\n<hr /><strong>Critical Success</strong> The target is unaffected.\n<p><strong>Success</strong> The target's @Compendium[pf2e.conditionitems.Dying]{Dying} value increases by 1.</p>\n<p><strong>Failure</strong> The target dies.</p>"
                },
                "duration": {
                    "value": ""
                },
                "hasCounteractCheck": {
                    "value": false
                },
                "level": {
                    "value": 2
                },
                "location": {
                    "value": "i3JP3msktn7Ld1pK"
                },
                "materials": {
                    "value": ""
                },
                "prepared": {
                    "value": ""
                },
                "primarycheck": {
                    "value": ""
                },
                "range": {
                    "value": "touch"
                },
                "rules": [],
                "save": {
                    "basic": "",
                    "value": "will"
                },
                "scaling": {
                    "formula": "",
                    "mode": "none"
                },
                "school": {
                    "value": "necromancy"
                },
                "secondarycasters": {
                    "value": ""
                },
                "secondarycheck": {
                    "value": ""
                },
                "slug": "death-knell",
                "source": {
                    "value": ""
                },
                "spellType": {
                    "value": "save"
                },
                "sustained": {
                    "value": false
                },
                "target": {
                    "value": "1 living creature that has 0 HP"
                },
                "time": {
                    "value": "2"
                },
                "traditions": {
                    "value": [
                        "divine",
                        "occult"
                    ]
                },
                "traits": {
                    "custom": "",
                    "rarity": {
                        "value": "common"
                    },
                    "value": [
                        "death",
                        "necromancy"
                    ]
                }
            },
            "effects": [],
            "flags": {
                "core": {
                    "sourceId": "Compendium.pf2e.spells-srd.dLdRqT6UxTKlsPgp"
                }
            },
            "img": "systems/pf2e/icons/spells/death-knell.webp",
            "name": "Death Knell",
            "sort": 600000,
            "type": "spell"
        },
        {
            "_id": "nm6SpVLCsZtyeAPo",
            "data": {
                "ability": {
                    "value": ""
                },
                "area": {
                    "areaType": "",
                    "value": null
                },
                "areasize": {
                    "value": ""
                },
                "category": {
                    "value": "spell"
                },
                "components": {
                    "value": "somatic, verbal"
                },
                "cost": {
                    "value": ""
                },
                "damage": {
                    "applyMod": false,
                    "value": ""
                },
                "damageType": {
                    "value": ""
                },
                "description": {
                    "chat": "",
                    "unidentified": "",
                    "value": "<p>You create a reservoir of vitality from necromantic energy, gaining a number of temporary Hit Points equal to 6 plus your spellcasting ability modifier.</p>\n<hr />\n<p><strong>Heightened (+1)</strong> The temporary Hit Points increase by 3.</p>"
                },
                "duration": {
                    "value": "8 hours"
                },
                "hasCounteractCheck": {
                    "value": false
                },
                "level": {
                    "value": 2
                },
                "location": {
                    "value": "i3JP3msktn7Ld1pK"
                },
                "materials": {
                    "value": ""
                },
                "prepared": {
                    "value": ""
                },
                "primarycheck": {
                    "value": ""
                },
                "range": {
                    "value": ""
                },
                "rules": [],
                "save": {
                    "basic": "",
                    "value": ""
                },
                "scaling": {
                    "formula": "",
                    "mode": "none"
                },
                "school": {
                    "value": "necromancy"
                },
                "secondarycasters": {
                    "value": ""
                },
                "secondarycheck": {
                    "value": ""
                },
                "slug": "false-life",
                "source": {
                    "value": ""
                },
                "spellType": {
                    "value": "utility"
                },
                "sustained": {
                    "value": false
                },
                "target": {
                    "value": ""
                },
                "time": {
                    "value": "2"
                },
                "traditions": {
                    "value": [
                        "arcane",
                        "occult"
                    ]
                },
                "traits": {
                    "custom": "",
                    "rarity": {
                        "value": "common"
                    },
                    "value": [
                        "necromancy"
                    ]
                }
            },
            "effects": [],
            "flags": {
                "core": {
                    "sourceId": "Compendium.pf2e.spells-srd.8ViwItUgwT4lOvvb"
                }
            },
            "img": "systems/pf2e/icons/spells/false-life.webp",
            "name": "False Life",
            "sort": 700000,
            "type": "spell"
        },
        {
            "_id": "X8zyd1qQyglkeWQP",
            "data": {
                "ability": {
                    "value": ""
                },
                "area": {
                    "areaType": "emanation",
                    "value": 30
                },
                "areasize": {
                    "value": "varies"
                },
                "category": {
                    "value": "spell"
                },
                "components": {
                    "value": "varies"
                },
                "cost": {
                    "value": ""
                },
                "damage": {
                    "applyMod": false,
                    "value": "2d8"
                },
                "damageType": {
                    "value": "negative"
                },
                "description": {
                    "chat": "",
                    "unidentified": "",
                    "value": "<p>You channel negative energy to harm the living or heal the undead. If the target is a living creature, you deal 1d8 negative damage to it, and it gets a basic Fortitude save. If the target is a willing undead creature, you restore that amount of Hit Points. The number of actions you spend when Casting this Spell determines its targets, range, area, and other parameters.</p>\n<hr />\n<p><strong>1 Action</strong> (somatic) The spell has a range of touch.</p>\n<p><strong>2 Actions</strong> (verbal, somatic) The spell has a range of 30 feet. If you're healing an undead creature, increase the Hit Points restored by 8.</p>\n<p><strong>3 Actions</strong> (material, verbal, somatic) You disperse negative energy in a 30-foot emanation. This targets all living and undead creatures in the area.</p>\n<hr />\n<p><strong>Heightened (+1)</strong> The amount of healing or damage increases by 1d8, and the extra healing for the 2-action version increases by 8.</p>"
                },
                "duration": {
                    "value": ""
                },
                "hasCounteractCheck": {
                    "value": false
                },
                "level": {
                    "value": 2
                },
                "location": {
                    "value": "i3JP3msktn7Ld1pK"
                },
                "materials": {
                    "value": ""
                },
                "prepared": {
                    "value": ""
                },
                "primarycheck": {
                    "value": ""
                },
                "range": {
                    "value": "varies"
                },
                "rules": [],
                "save": {
                    "basic": "basic",
                    "value": "fortitude"
                },
                "scaling": {
                    "formula": "1d8",
                    "mode": "level1"
                },
                "school": {
                    "value": "necromancy"
                },
                "secondarycasters": {
                    "value": ""
                },
                "secondarycheck": {
                    "value": ""
                },
                "slug": "harm",
                "source": {
                    "value": ""
                },
                "spellType": {
                    "value": "save"
                },
                "sustained": {
                    "value": false
                },
                "target": {
                    "value": "1 living creature or 1 willing undead creature"
                },
                "time": {
                    "value": "1 to 3"
                },
                "traditions": {
                    "value": [
                        "divine"
                    ]
                },
                "traits": {
                    "custom": "",
                    "rarity": {
                        "value": "common"
                    },
                    "value": [
                        "necromancy",
                        "negative"
                    ]
                }
            },
            "effects": [],
            "flags": {
                "core": {
                    "sourceId": "Compendium.pf2e.spells-srd.wdA52JJnsuQWeyqz"
                }
            },
            "img": "systems/pf2e/icons/spells/harm.webp",
            "name": "Harm",
            "sort": 800000,
            "type": "spell"
        },
        {
            "_id": "2CJjwBgkIpTZc1ut",
            "data": {
                "ability": {
                    "value": ""
                },
                "area": {
                    "areaType": "",
                    "value": null
                },
                "areasize": {
                    "value": ""
                },
                "category": {
                    "value": "ritual"
                },
                "components": {
                    "value": ""
                },
                "cost": {
                    "value": ""
                },
                "damage": {
                    "applyMod": false,
                    "value": ""
                },
                "damageType": {
                    "value": ""
                },
                "description": {
                    "chat": "",
                    "unidentified": "",
                    "value": "<p>You call upon the powers of Abaddon to grant you the assistance of a daemon. You call upon a daemon whose level can be no more than double <em>daemonic pact's</em> spell level, two daemons whose levels are each at least 2 less than double the spell level, or three daemons whose levels are each at least 3 less than double the spell level.</p>\n<hr />\n<p><strong>Critical Success</strong> You conjure the daemon or daemons, and they require nothing in return for their service.</p>\n<p><strong>Success</strong> You conjure the daemon or daemons, who serve you willingly, but require a sacrifice in the form of spilled blood (either another creature's or your own).</p>\n<p><strong>Failure</strong> You don't conjure any daemons.</p>\n<p><strong>Critical Failure</strong> You don't conjure any daemons, and the self-sacrifice required to perform the ritual leaves you @Compendium[pf2e.conditionitems.Drained]{Drained 1} (or @Compendium[pf2e.conditionitems.Drained]{Drained 2} if the spell level is 5 or higher).</p>"
                },
                "duration": {
                    "value": ""
                },
                "hasCounteractCheck": {
                    "value": false
                },
                "level": {
                    "value": 1
                },
                "location": {
                    "value": "BZPlONnpK4OvYZZs"
                },
                "materials": {
                    "value": ""
                },
                "prepared": {
                    "value": ""
                },
                "primarycheck": {
                    "value": "Religion (expert; you must be a daemon or an urdefhan)"
                },
                "range": {
                    "value": ""
                },
                "rules": [],
                "save": {
                    "basic": "",
                    "value": ""
                },
                "scaling": {
                    "formula": "",
                    "mode": "none"
                },
                "school": {
                    "value": "conjuration"
                },
                "secondarycasters": {
                    "value": ""
                },
                "secondarycheck": {
                    "value": ""
                },
                "slug": "daemonic-pact",
                "source": {
                    "value": ""
                },
                "spellType": {
                    "value": "utility"
                },
                "sustained": {
                    "value": false
                },
                "target": {
                    "value": ""
                },
                "time": {
                    "value": "1 day"
                },
                "traditions": {
                    "custom": "",
                    "value": []
                },
                "traits": {
                    "custom": "",
                    "rarity": {
                        "value": "uncommon"
                    },
                    "value": [
                        "conjuration"
                    ]
                }
            },
            "effects": [],
            "flags": {
                "core": {
                    "sourceId": "Compendium.pf2e.spells-srd.Vpohy4XH1DaH95hT"
                }
            },
            "img": "systems/pf2e/icons/spells/daemonic-pact.webp",
            "name": "Daemonic Pact",
            "sort": 900000,
            "type": "spell"
        },
        {
            "_id": "cXiAbItR9q9FYi5R",
            "data": {
                "ability": {
                    "value": ""
                },
                "area": {
                    "areaType": "",
                    "value": null
                },
                "areasize": {
                    "value": ""
                },
                "category": {
                    "value": "spell"
                },
                "components": {
                    "value": "verbal"
                },
                "cost": {
                    "value": ""
                },
                "damage": {
                    "applyMod": false,
                    "value": ""
                },
                "damageType": {
                    "value": ""
                },
                "description": {
                    "chat": "",
                    "unidentified": "",
                    "value": "<p><strong>Trigger</strong> a creature within range is falling</p>\n<hr />\n<p>You cause the air itself to arrest a fall. The target's fall slows to 60 feet per round, and the portion of the fall during the spell's duration doesn't count when calculating falling damage. If the target reaches the ground while the spell is in effect, it takes no damage from the fall. The spell ends as soon as the target lands.</p>"
                },
                "duration": {
                    "value": "1 minute"
                },
                "hasCounteractCheck": {
                    "value": false
                },
                "level": {
                    "value": 1
                },
                "location": {
                    "value": "i3JP3msktn7Ld1pK"
                },
                "materials": {
                    "value": ""
                },
                "prepared": {
                    "value": ""
                },
                "primarycheck": {
                    "value": ""
                },
                "range": {
                    "value": "60 feet"
                },
                "rules": [],
                "save": {
                    "basic": "",
                    "value": ""
                },
                "scaling": {
                    "formula": "",
                    "mode": "none"
                },
                "school": {
                    "value": "abjuration"
                },
                "secondarycasters": {
                    "value": ""
                },
                "secondarycheck": {
                    "value": ""
                },
                "slug": "feather-fall",
                "source": {
                    "value": ""
                },
                "spellType": {
                    "value": "utility"
                },
                "sustained": {
                    "value": false
                },
                "target": {
                    "value": "1 falling creature"
                },
                "time": {
                    "value": "reaction"
                },
                "traditions": {
                    "value": [
                        "arcane",
                        "primal"
                    ]
                },
                "traits": {
                    "custom": "",
                    "rarity": {
                        "value": "common"
                    },
                    "value": [
                        "abjuration"
                    ]
                }
            },
            "effects": [],
            "flags": {
                "core": {
                    "sourceId": "Compendium.pf2e.spells-srd.TTwOKGqmZeKSyNMH"
                }
            },
            "img": "systems/pf2e/icons/spells/feather-fall.webp",
            "name": "Feather Fall (Self only)",
            "sort": 1000000,
            "type": "spell"
        },
        {
            "_id": "3VORr9peDbXidFSQ",
            "data": {
                "ability": {
                    "value": ""
                },
                "area": {
                    "areaType": "line",
                    "value": 30
                },
                "areasize": {
                    "value": "30-foot line"
                },
                "category": {
                    "value": "spell"
                },
                "components": {
                    "value": "somatic, verbal"
                },
                "cost": {
                    "value": ""
                },
                "damage": {
                    "applyMod": false,
                    "value": "2d4"
                },
                "damageType": {
                    "value": "negative"
                },
                "description": {
                    "chat": "",
                    "unidentified": "",
                    "value": "<p>Tendrils of darkness curl out from your fingertips and race through the air. You deal 2d4 negative damage and 1 persistent bleed damage to living creatures in the line. Each living creature in the line must attempt a Fortitude save.</p>\n<hr /><strong>Critical Success</strong> The creature is unaffected.\n<p><strong>Success</strong> The creature takes half the negative damage and no persistent bleed damage.</p>\n<p><strong>Failure</strong> The creature takes full damage.</p>\n<p><strong>Critical Failure</strong> The creature takes double negative damage and double persistent bleed damage.</p>\n<hr /><strong>Heightened (+1)</strong> The negative damage increases by 2d4, and the persistent bleed damage increases by 1."
                },
                "duration": {
                    "value": ""
                },
                "hasCounteractCheck": {
                    "value": false
                },
                "level": {
                    "value": 1
                },
                "location": {
                    "value": "i3JP3msktn7Ld1pK"
                },
                "materials": {
                    "value": ""
                },
                "prepared": {
                    "value": ""
                },
                "primarycheck": {
                    "value": ""
                },
                "range": {
                    "value": ""
                },
                "rules": [],
                "save": {
                    "basic": "",
                    "value": "fortitude"
                },
                "scaling": {
                    "formula": "2d4",
                    "mode": "level1"
                },
                "school": {
                    "value": "necromancy"
                },
                "secondarycasters": {
                    "value": ""
                },
                "secondarycheck": {
                    "value": ""
                },
                "slug": "grim-tendrils",
                "source": {
                    "value": ""
                },
                "spellType": {
                    "value": "save"
                },
                "sustained": {
                    "value": false
                },
                "target": {
                    "value": ""
                },
                "time": {
                    "value": "2"
                },
                "traditions": {
                    "value": [
                        "arcane",
                        "occult"
                    ]
                },
                "traits": {
                    "custom": "",
                    "rarity": {
                        "value": "common"
                    },
                    "value": [
                        "necromancy",
                        "negative"
                    ]
                }
            },
            "effects": [],
            "flags": {
                "core": {
                    "sourceId": "Compendium.pf2e.spells-srd.k34hDOfIIMAxNL4a"
                }
            },
            "img": "systems/pf2e/icons/spells/grim-tendrils.webp",
            "name": "Grim Tendrils",
            "sort": 1100000,
            "type": "spell"
        },
        {
            "_id": "RrttyuyuYZlaysJF",
            "data": {
                "ability": {
                    "value": ""
                },
                "area": {
                    "areaType": "emanation",
                    "value": 30
                },
                "areasize": {
                    "value": "varies"
                },
                "category": {
                    "value": "spell"
                },
                "components": {
                    "value": "varies"
                },
                "cost": {
                    "value": ""
                },
                "damage": {
                    "applyMod": false,
                    "value": "1d8"
                },
                "damageType": {
                    "value": "negative"
                },
                "description": {
                    "chat": "",
                    "unidentified": "",
                    "value": "<p>You channel negative energy to harm the living or heal the undead. If the target is a living creature, you deal 1d8 negative damage to it, and it gets a basic Fortitude save. If the target is a willing undead creature, you restore that amount of Hit Points. The number of actions you spend when Casting this Spell determines its targets, range, area, and other parameters.</p>\n<hr />\n<p><strong>1 Action</strong> (somatic) The spell has a range of touch.</p>\n<p><strong>2 Actions</strong> (verbal, somatic) The spell has a range of 30 feet. If you're healing an undead creature, increase the Hit Points restored by 8.</p>\n<p><strong>3 Actions</strong> (material, verbal, somatic) You disperse negative energy in a 30-foot emanation. This targets all living and undead creatures in the area.</p>\n<hr />\n<p><strong>Heightened (+1)</strong> The amount of healing or damage increases by 1d8, and the extra healing for the 2-action version increases by 8.</p>"
                },
                "duration": {
                    "value": ""
                },
                "hasCounteractCheck": {
                    "value": false
                },
                "level": {
                    "value": 1
                },
                "location": {
                    "value": "i3JP3msktn7Ld1pK"
                },
                "materials": {
                    "value": ""
                },
                "prepared": {
                    "value": ""
                },
                "primarycheck": {
                    "value": ""
                },
                "range": {
                    "value": "varies"
                },
                "rules": [],
                "save": {
                    "basic": "basic",
                    "value": "fortitude"
                },
                "scaling": {
                    "formula": "1d8",
                    "mode": "level1"
                },
                "school": {
                    "value": "necromancy"
                },
                "secondarycasters": {
                    "value": ""
                },
                "secondarycheck": {
                    "value": ""
                },
                "slug": "harm",
                "source": {
                    "value": ""
                },
                "spellType": {
                    "value": "save"
                },
                "sustained": {
                    "value": false
                },
                "target": {
                    "value": "1 living creature or 1 willing undead creature"
                },
                "time": {
                    "value": "1 to 3"
                },
                "traditions": {
                    "value": [
                        "divine"
                    ]
                },
                "traits": {
                    "custom": "",
                    "rarity": {
                        "value": "common"
                    },
                    "value": [
                        "necromancy",
                        "negative"
                    ]
                }
            },
            "effects": [],
            "flags": {
                "core": {
                    "sourceId": "Compendium.pf2e.spells-srd.wdA52JJnsuQWeyqz"
                }
            },
            "img": "systems/pf2e/icons/spells/harm.webp",
            "name": "Harm",
            "sort": 1200000,
            "type": "spell"
        },
        {
            "_id": "raZSPfbGPmMFsqqt",
            "data": {
                "ability": {
                    "value": ""
                },
                "area": {
                    "areaType": "",
                    "value": null
                },
                "areasize": {
                    "value": ""
                },
                "category": {
                    "value": "spell"
                },
                "components": {
                    "value": "somatic, verbal"
                },
                "cost": {
                    "value": ""
                },
                "damage": {
                    "applyMod": false,
                    "value": ""
                },
                "damageType": {
                    "value": ""
                },
                "description": {
                    "chat": "",
                    "unidentified": "",
                    "value": "<p>A ray with the power to sap a foe's strength flashes from your hand. Attempt a ranged spell attack against the target. If you succeed, that creature attempts a Fortitude save in order to determine the spell's effect. If you critically succeed on your attack roll, use the outcome for one degree of success worse than the result of its save.</p>\n<hr />\n<p><strong>Critical Success</strong> The target is unaffected.</p>\n<p><strong>Success</strong> The target becomes @Compendium[pf2e.conditionitems.Enfeebled]{Enfeebled 1}.</p>\n<p><strong>Failure</strong> The target becomes @Compendium[pf2e.conditionitems.Enfeebled]{Enfeebled 2}.</p>\n<p><strong>Critical Failure</strong> The target becomes @Compendium[pf2e.conditionitems.Enfeebled]{Enfeebled 3}.</p>"
                },
                "duration": {
                    "value": "1 minute"
                },
                "hasCounteractCheck": {
                    "value": false
                },
                "level": {
                    "value": 1
                },
                "location": {
                    "value": "i3JP3msktn7Ld1pK"
                },
                "materials": {
                    "value": ""
                },
                "prepared": {
                    "value": ""
                },
                "primarycheck": {
                    "value": ""
                },
                "range": {
                    "value": "30 feet"
                },
                "rules": [],
                "save": {
                    "basic": "",
                    "value": "fortitude"
                },
                "scaling": {
                    "formula": "",
                    "mode": "none"
                },
                "school": {
                    "value": "necromancy"
                },
                "secondarycasters": {
                    "value": ""
                },
                "secondarycheck": {
                    "value": ""
                },
                "slug": "ray-of-enfeeblement",
                "source": {
                    "value": ""
                },
                "spellType": {
                    "value": "attack"
                },
                "sustained": {
                    "value": false
                },
                "target": {
                    "value": "1 creature"
                },
                "time": {
                    "value": "2"
                },
                "traditions": {
                    "value": [
                        "arcane",
                        "divine",
                        "occult"
                    ]
                },
                "traits": {
                    "custom": "",
                    "rarity": {
                        "value": "common"
                    },
                    "value": [
                        "attack",
                        "necromancy"
                    ]
                }
            },
            "effects": [],
            "flags": {
                "core": {
                    "sourceId": "Compendium.pf2e.spells-srd.J7Y7tl0bbdz7TcCc"
                }
            },
            "img": "systems/pf2e/icons/spells/ray-of-enfeeblement.webp",
            "name": "Ray of Enfeeblement",
            "sort": 1300000,
            "type": "spell"
        },
        {
            "_id": "5hJ3b0ZkfA2yOGLc",
            "data": {
                "MAP": {
                    "value": ""
                },
                "ability": {
                    "value": "str"
                },
                "baseItem": "warhammer",
                "bonus": {
                    "value": 0
                },
                "bonusDamage": {
                    "value": 0
                },
                "brokenThreshold": {
                    "value": 0
                },
                "bulkCapacity": {
                    "value": ""
                },
                "collapsed": {
                    "value": false
                },
                "containerId": {
                    "value": ""
                },
                "damage": {
                    "damageType": "bludgeoning",
                    "dice": 1,
                    "die": "d8",
                    "value": ""
                },
                "description": {
                    "chat": "",
                    "unidentified": "",
                    "value": "<p>This weapon has a wooden shaft ending in a large, heavy metal head. Thehead of the hammer might be single‑sided or double‑sided, but it's always capable of delivering powerful bludgeoning blows.</p>"
                },
                "equipped": {
                    "value": false
                },
                "equippedBulk": {
                    "value": ""
                },
                "group": {
                    "value": "hammer"
                },
                "hands": {
                    "value": ""
                },
                "hardness": {
                    "value": 0
                },
                "hp": {
                    "value": 0
                },
                "identification": {
                    "misidentified": {},
                    "status": "identified",
                    "unidentified": {
                        "data": {
                            "description": {
                                "value": ""
                            }
                        },
                        "img": "",
                        "name": ""
                    }
                },
                "invested": {
                    "value": false
                },
                "level": {
                    "value": 0
                },
                "maxHp": {
                    "value": 0
                },
                "negateBulk": {
                    "value": "0"
                },
                "potencyRune": {
                    "value": 0
                },
                "preciousMaterial": {
                    "value": ""
                },
                "preciousMaterialGrade": {
                    "value": ""
                },
                "price": {
                    "value": "1 gp"
                },
                "property1": {
                    "critDamage": "",
                    "critDamageType": "",
                    "critDice": null,
                    "critDie": "",
                    "criticalConditionType": "",
                    "criticalConditionValue": null,
                    "damageType": "",
                    "dice": null,
                    "die": "",
                    "strikeConditionType": "",
                    "strikeConditionValue": null,
                    "value": ""
                },
                "propertyRune1": {
                    "value": ""
                },
                "propertyRune2": {
                    "value": ""
                },
                "propertyRune3": {
                    "value": ""
                },
                "propertyRune4": {
                    "value": ""
                },
                "quantity": {
                    "value": 1
                },
                "range": {
                    "value": ""
                },
                "reload": {
                    "value": ""
                },
                "rules": [],
                "size": {
                    "value": "med"
                },
                "slug": "warhammer",
                "source": {
                    "value": ""
                },
                "splashDamage": {
                    "value": 0
                },
                "stackGroup": {
                    "value": ""
                },
                "strikingRune": {
                    "value": ""
                },
                "traits": {
                    "custom": "",
                    "rarity": {
                        "value": "common"
                    },
                    "value": [
                        "shove"
                    ]
                },
                "usage": {
                    "value": "held-in-one-hand"
                },
                "weaponType": {
                    "value": "martial"
                },
                "weight": {
                    "value": "1"
                }
            },
            "effects": [],
            "flags": {
                "core": {
                    "sourceId": "Compendium.pf2e.equipment-srd.rXt4629QSg7KDTgJ"
                }
            },
            "img": "systems/pf2e/icons/equipment/weapons/warhammer.webp",
            "name": "Warhammer",
            "sort": 1400000,
            "type": "weapon"
        },
        {
            "_id": "cqI7kqooduGDEqz6",
            "data": {
                "attack": {
                    "value": ""
                },
                "attackEffects": {
                    "value": []
                },
                "baseItem": null,
                "bonus": {
                    "value": 12
                },
                "brokenThreshold": {
                    "value": 0
                },
                "bulkCapacity": {
                    "value": ""
                },
                "collapsed": {
                    "value": false
                },
                "containerId": {
                    "value": ""
                },
                "damage": {
                    "damageType": "bludgeoning",
                    "die": "1d8+5"
                },
                "damageRolls": {
                    "ge27nhikrjgkhovj4b5x": {
                        "damage": "1d8+5",
                        "damageType": "bludgeoning"
                    }
                },
                "description": {
                    "chat": "",
                    "unidentified": "",
                    "value": ""
                },
                "equipped": {
                    "value": false
                },
                "equippedBulk": {
                    "value": ""
                },
                "hardness": {
                    "value": 0
                },
                "hp": {
                    "value": 0
                },
                "invested": {
                    "value": false
                },
                "maxHp": {
                    "value": 0
                },
                "negateBulk": {
                    "value": "0"
                },
                "preciousMaterial": {
                    "value": ""
                },
                "preciousMaterialGrade": {
                    "value": ""
                },
                "price": {
                    "value": 0
                },
                "property1": {
                    "critDamage": "",
                    "critDamageType": "",
                    "critDice": 0,
                    "critDie": "",
                    "damageType": "",
                    "dice": 0,
                    "die": "",
                    "value": ""
                },
                "property2": {
                    "critDamage": "",
                    "critDamageType": "",
                    "critDice": 0,
                    "critDie": "",
                    "damageType": "",
                    "dice": 0,
                    "die": "",
                    "value": ""
                },
                "property3": {
                    "critDamage": "",
                    "critDamageType": "",
                    "critDice": 0,
                    "critDie": "",
                    "damageType": "",
                    "dice": 0,
                    "die": "",
                    "value": ""
                },
                "quantity": {
                    "value": 1
                },
                "rules": [],
                "size": {
                    "value": "med"
                },
                "slug": null,
                "source": {
                    "value": ""
                },
                "stackGroup": {
                    "value": ""
                },
                "traits": {
                    "custom": "",
                    "rarity": {
                        "value": "common"
                    },
                    "value": [
                        "shove"
                    ]
                },
                "usage": {
                    "value": "held-in-one-hand"
                },
                "weaponType": {
                    "value": "melee"
                },
                "weight": {
                    "value": 0
                }
            },
            "effects": [],
            "flags": {},
            "img": "systems/pf2e/icons/default-icons/mystery-man.svg",
            "name": "Warhammer",
            "sort": 1500000,
            "type": "melee"
        },
        {
            "_id": "DLcmdOFICEUjArKs",
            "data": {
                "attack": {
                    "value": ""
                },
                "attackEffects": {
                    "value": [
                        "Wicked Bite"
                    ]
                },
                "baseItem": null,
                "bonus": {
                    "value": 14
                },
                "brokenThreshold": {
                    "value": 0
                },
                "bulkCapacity": {
                    "value": ""
                },
                "collapsed": {
                    "value": false
                },
                "containerId": {
                    "value": ""
                },
                "damage": {
                    "damageType": "piercing",
                    "die": "2d6+5"
                },
                "damageRolls": {
                    "x81ahj505p9rsse842ir": {
                        "damage": "2d6+5",
                        "damageType": "piercing"
                    }
                },
                "description": {
                    "chat": "",
                    "unidentified": "",
                    "value": ""
                },
                "equipped": {
                    "value": false
                },
                "equippedBulk": {
                    "value": ""
                },
                "hardness": {
                    "value": 0
                },
                "hp": {
                    "value": 0
                },
                "invested": {
                    "value": false
                },
                "maxHp": {
                    "value": 0
                },
                "negateBulk": {
                    "value": "0"
                },
                "preciousMaterial": {
                    "value": ""
                },
                "preciousMaterialGrade": {
                    "value": ""
                },
                "price": {
                    "value": 0
                },
                "property1": {
                    "critDamage": "",
                    "critDamageType": "",
                    "critDice": 0,
                    "critDie": "",
                    "damageType": "",
                    "dice": 0,
                    "die": "",
                    "value": ""
                },
                "property2": {
                    "critDamage": "",
                    "critDamageType": "",
                    "critDice": 0,
                    "critDie": "",
                    "damageType": "",
                    "dice": 0,
                    "die": "",
                    "value": ""
                },
                "property3": {
                    "critDamage": "",
                    "critDamageType": "",
                    "critDice": 0,
                    "critDie": "",
                    "damageType": "",
                    "dice": 0,
                    "die": "",
                    "value": ""
                },
                "quantity": {
                    "value": 1
                },
                "rules": [],
                "size": {
                    "value": "med"
                },
                "slug": null,
                "source": {
                    "value": ""
                },
                "stackGroup": {
                    "value": ""
                },
                "traits": {
                    "custom": "",
                    "rarity": {
                        "value": "common"
                    },
                    "value": []
                },
                "usage": {
                    "value": "held-in-one-hand"
                },
                "weaponType": {
                    "value": "melee"
                },
                "weight": {
                    "value": 0
                }
            },
            "effects": [],
            "flags": {},
            "img": "systems/pf2e/icons/default-icons/mystery-man.svg",
            "name": "Jaws",
            "sort": 1600000,
            "type": "melee"
        },
        {
            "_id": "fJJc56GDg0EB3oit",
            "data": {
                "actionCategory": {
                    "value": "interaction"
                },
                "actionType": {
                    "value": "passive"
                },
                "actions": {
                    "value": ""
                },
                "description": {
                    "value": "<p>A creature with greater darkvision can see perfectly well in areas of darkness and dim light, though such vision is in black and white only. Some forms of magical darkness, such as a 4th-level @Compendium[pf2e.spells-srd.Darkness]{Darkness} spell, block normal @Compendium[pf2e.bestiary-ability-glossary-srd.Darkvision]{Darkvision}. A creature with greater darkvision, however, can see through even these forms of magical darkness.</p>"
                },
                "requirements": {
                    "value": ""
                },
                "rules": [],
                "slug": "greater-darkvision",
                "source": {
                    "value": ""
                },
                "traits": {
                    "custom": "",
                    "rarity": {
                        "value": "common"
                    },
                    "value": []
                },
                "trigger": {
                    "value": ""
                },
                "weapon": {
                    "value": ""
                }
            },
            "effects": [],
            "flags": {
                "core": {
                    "sourceId": "Compendium.pf2e.bestiary-ability-glossary-srd.4Ho2xMPEC05aSxzr"
                }
            },
            "img": "systems/pf2e/icons/default-icons/action.svg",
            "name": "Greater Darkvision",
            "sort": 1700000,
            "type": "action"
        },
        {
            "_id": "6no2LBNfSHP8w9DB",
            "data": {
                "actionCategory": {
                    "value": "defensive"
                },
                "actionType": {
                    "value": "passive"
                },
                "actions": {
                    "value": ""
                },
                "description": {
                    "chat": "",
                    "unidentified": "",
                    "value": "<p>A creature with negative healing draws health from negative energy rather than positive energy. It is damaged by positive damage and is not healed by positive healing effects. It does not take negative damage, and it is healed by negative effects that heal undead.</p>"
                },
                "requirements": {
                    "value": ""
                },
                "rules": [],
                "slug": "negative-healing",
                "source": {
                    "value": ""
                },
                "traits": {
                    "custom": "",
                    "rarity": {
                        "value": "common"
                    },
                    "value": []
                },
                "trigger": {
                    "value": ""
                },
                "weapon": {
                    "value": ""
                }
            },
            "effects": [],
            "flags": {
                "core": {
                    "sourceId": "Compendium.pf2e.bestiary-ability-glossary-srd.TTCw5NusiSSkJU1x"
                }
            },
            "img": "systems/pf2e/icons/default-icons/action.svg",
            "name": "Negative Healing",
            "sort": 1800000,
            "type": "action"
        },
        {
            "_id": "g5TUPRPR9gHfXrfU",
            "data": {
                "actionCategory": {
                    "value": "defensive"
                },
                "actionType": {
                    "value": "passive"
                },
                "actions": {
                    "value": ""
                },
                "description": {
                    "chat": "",
                    "unidentified": "",
                    "value": "<p>When an urdefhan dies, its invisible flesh quickly rots away and sublimates into a foul-smelling gas that fills a 5-foot emanation around the body.</p>\n<p>This gas deals [[/r 5d6 #negative]] negative damage to creatures in this area as their flesh curdles and rots as well (<span data-pf2-saving-throw=\"fortitude\" data-pf2-dc=\"21\" data-pf2-traits=\"divine,necromancy,negative,damaging-effect\" data-pf2-label=\"Necrotic Decay DC\" data-pf2-show-dc=\"gm\">basic Fortitude</span> save).</p>"
                },
                "requirements": {
                    "value": ""
                },
                "rules": [],
                "slug": null,
                "source": {
                    "value": ""
                },
                "traits": {
                    "custom": "",
                    "rarity": {
                        "value": "common"
                    },
                    "value": [
                        "divine",
                        "necromancy",
                        "negative"
                    ]
                },
                "trigger": {
                    "value": ""
                },
                "usage": {
                    "value": "held-in-one-hand"
                },
                "weapon": {
                    "value": ""
                }
            },
            "effects": [],
            "flags": {},
            "img": "systems/pf2e/icons/default-icons/mystery-man.svg",
            "name": "Necrotic Decay",
            "sort": 1900000,
            "type": "action"
        },
        {
            "_id": "J2UWT1TZOpg7ODbW",
            "data": {
                "actionCategory": {
                    "value": "offensive"
                },
                "actionType": {
                    "value": "action"
                },
                "actions": {
                    "value": "2"
                },
                "description": {
                    "chat": "",
                    "unidentified": "",
                    "value": "<p><strong>Frequency</strong> once per day;</p>\n<p><strong>Effect</strong> The urdefhan lets out a battle cry, sending itself and its allies into a fanatical frenzy. Each ally that hears the call gains a +1 status bonus to attack rolls, damage rolls, and saving throws, and takes a -1 status penalty to AC. Affected allies must use at least one of their actions to Strike each round, if they are able even if it means attacking an ally, object, or thin air).</p>\n<p>This lasts for [[/r 2d4 #rounds]] rounds.</p>"
                },
                "requirements": {
                    "value": ""
                },
                "rules": [],
                "slug": null,
                "source": {
                    "value": ""
                },
                "traits": {
                    "custom": "",
                    "rarity": {
                        "value": "common"
                    },
                    "value": [
                        "auditory",
                        "divine",
                        "emotion",
                        "enchantment",
                        "mental"
                    ]
                },
                "trigger": {
                    "value": ""
                },
                "usage": {
                    "value": "held-in-one-hand"
                },
                "weapon": {
                    "value": ""
                }
            },
            "effects": [],
            "flags": {},
            "img": "systems/pf2e/icons/actions/TwoActions.webp",
            "name": "Stoke the Fervent",
            "sort": 2000000,
            "type": "action"
        },
        {
            "_id": "cLUNjff4ATgKuIj8",
            "data": {
                "actionCategory": {
                    "value": "offensive"
                },
                "actionType": {
                    "value": "action"
                },
                "actions": {
                    "value": "1"
                },
                "description": {
                    "chat": "",
                    "unidentified": "",
                    "value": "<p><strong>Requirements</strong> The urdefhan damaged a creature with a jaws Strike on its last action;</p>\n<p><strong>Effect</strong> The urdefhan maintains contact, turning the creature's flesh translucent around the site of the injury. The urdefhan chooses one of two options, each of which requires a <span data-pf2-saving-throw=\"fortitude\" data-pf2-dc=\"22\" data-pf2-traits=\"necromancy\" data-pf2-label=\"Wicked Bite DC\" data-pf2-show-dc=\"gm\">Fortitude</span> save. If the jaws Strike was a critical hit, the creature suffers both effects, using the same save result for both.</p>\n<ul>\n<li><strong>Drain Blood</strong> The urdefhan drinks some of the creature's blood. On a failed save, the creature is @Compendium[pf2e.conditionitems.Drained]{Drained 1} and the urdefhan regains 5 HP (or, on a critical failure, it's @Compendium[pf2e.conditionitems.Drained]{Drained 2} and the urdefhan regains 10 HP).</li>\n<li><strong>Drain Vitality</strong> The urdefhan draws out some of the creature's vital essence. The creature becomes @Compendium[pf2e.conditionitems.Enfeebled]{Enfeebled 1} for 1 hour on a failed save (or @Compendium[pf2e.conditionitems.Enfeebled]{Enfeebled 2} for 1 hour on a critical failure).</li>\n</ul>"
                },
                "requirements": {
                    "value": ""
                },
                "rules": [],
                "slug": null,
                "source": {
                    "value": ""
                },
                "traits": {
                    "custom": "",
                    "rarity": {
                        "value": "common"
                    },
                    "value": [
                        "necromancy"
                    ]
                },
                "trigger": {
                    "value": ""
                },
                "usage": {
                    "value": "held-in-one-hand"
                },
                "weapon": {
                    "value": ""
                }
            },
            "effects": [],
            "flags": {},
            "img": "systems/pf2e/icons/actions/OneAction.webp",
            "name": "Wicked Bite",
            "sort": 2100000,
            "type": "action"
        },
        {
            "_id": "s0kSpdrfeKqV4Khs",
            "data": {
                "description": {
                    "chat": "",
                    "unidentified": "",
                    "value": ""
                },
                "item": {
                    "value": 0
                },
                "mod": {
                    "value": 8
                },
                "proficient": {
                    "value": 0
                },
                "rules": [],
                "slug": null,
                "source": {
                    "value": ""
                },
                "traits": {
                    "custom": "",
                    "rarity": {
                        "value": "common"
                    },
                    "value": []
                },
                "usage": {
                    "value": "held-in-one-hand"
                }
            },
            "effects": [],
            "flags": {},
            "img": "systems/pf2e/icons/default-icons/lore.svg",
            "name": "Acrobatics",
            "sort": 2200000,
            "type": "lore"
        },
        {
            "_id": "fr8SOKw3oF9rTqXg",
            "data": {
                "description": {
                    "chat": "",
                    "unidentified": "",
                    "value": ""
                },
                "item": {
                    "value": 0
                },
                "mod": {
                    "value": 9
                },
                "proficient": {
                    "value": 0
                },
                "rules": [],
                "slug": null,
                "source": {
                    "value": ""
                },
                "traits": {
                    "custom": "",
                    "rarity": {
                        "value": "common"
                    },
                    "value": []
                },
                "usage": {
                    "value": "held-in-one-hand"
                }
            },
            "effects": [],
            "flags": {},
            "img": "systems/pf2e/icons/default-icons/lore.svg",
            "name": "Crafting",
            "sort": 2300000,
            "type": "lore"
        },
        {
            "_id": "fo2bGDwPf74qqLLI",
            "data": {
                "description": {
                    "chat": "",
                    "unidentified": "",
                    "value": ""
                },
                "item": {
                    "value": 0
                },
                "mod": {
                    "value": 11
                },
                "proficient": {
                    "value": 0
                },
                "rules": [],
                "slug": null,
                "source": {
                    "value": ""
                },
                "traits": {
                    "custom": "",
                    "rarity": {
                        "value": "common"
                    },
                    "value": []
                },
                "usage": {
                    "value": "held-in-one-hand"
                }
            },
            "effects": [],
            "flags": {},
            "img": "systems/pf2e/icons/default-icons/lore.svg",
            "name": "Intimidation",
            "sort": 2400000,
            "type": "lore"
        },
        {
            "_id": "5hRjDawWOXRXUEqK",
            "data": {
                "description": {
                    "chat": "",
                    "unidentified": "",
                    "value": ""
                },
                "item": {
                    "value": 0
                },
                "mod": {
                    "value": 11
                },
                "proficient": {
                    "value": 0
                },
                "rules": [],
                "slug": null,
                "source": {
                    "value": ""
                },
                "traits": {
                    "custom": "",
                    "rarity": {
                        "value": "common"
                    },
                    "value": []
                },
                "usage": {
                    "value": "held-in-one-hand"
                }
            },
            "effects": [],
            "flags": {},
            "img": "systems/pf2e/icons/default-icons/lore.svg",
            "name": "Occultism",
            "sort": 2500000,
            "type": "lore"
        },
        {
            "_id": "4UbcGVVRUxOmzzSR",
            "data": {
                "description": {
                    "chat": "",
                    "unidentified": "",
                    "value": ""
                },
                "item": {
                    "value": 0
                },
                "mod": {
                    "value": 13
                },
                "proficient": {
                    "value": 0
                },
                "rules": [],
                "slug": null,
                "source": {
                    "value": ""
                },
                "traits": {
                    "custom": "",
                    "rarity": {
                        "value": "common"
                    },
                    "value": []
                },
                "usage": {
                    "value": "held-in-one-hand"
                }
            },
            "effects": [],
            "flags": {},
            "img": "systems/pf2e/icons/default-icons/lore.svg",
            "name": "Religion",
            "sort": 2600000,
            "type": "lore"
        }
    ],
    "name": "Urdefhan Tormentor",
    "permission": {
        "default": 0
    },
    "token": {
        "actorId": "FJr7Rc9MQEwxjAcz",
        "actorLink": false,
        "bar1": {
            "attribute": "attributes.hp"
        },
        "bar2": {},
        "brightLight": 0,
        "brightSight": 0,
        "dimLight": 0,
        "dimSight": 0,
        "displayBars": 20,
        "displayName": 20,
        "disposition": -1,
        "flags": {},
        "height": 1,
        "img": "systems/pf2e/icons/default-icons/npc.svg",
        "lightAlpha": 1,
        "lightAngle": 360,
        "lightAnimation": {
            "intensity": 5,
            "speed": 5
        },
        "lockRotation": false,
        "name": "Urdefhan Tormentor",
        "randomImg": false,
        "rotation": 0,
        "scale": 1,
        "sightAngle": 360,
        "tint": null,
        "vision": false,
        "width": 1
    },
    "type": "npc"
}
