{
    "_id": "UirEIHILQgip87qv",
    "data": {
        "ability": {
            "value": ""
        },
        "area": {
            "value": ""
        },
        "areasize": {
            "value": ""
        },
        "category": {
            "value": "spell"
        },
        "components": {
            "value": "somatic, verbal"
        },
        "cost": {
            "value": ""
        },
        "damage": {
            "applyMod": false,
            "value": ""
        },
        "damageType": {
            "value": ""
        },
        "description": {
            "chat": "",
            "unidentified": "",
            "value": "<p>You speak on the virtue of charity, compelling the target to give away its possessions. The target must attempt a Will save. If the target has no items on its person, the spell fails.</p>\n<hr />\n<p><strong>Critical Success</strong> The target is unaffected.</p>\n<p><strong>Success</strong> The target is @Compendium[pf2e.conditionitems.Stunned]{Stunned 1} as it wrestles with the urge.</p>\n<p><strong>Failure</strong> On its next turn, before it does anything else, the target must present the nearest creature with an item in its possession; the target chooses which item to give, and if the only item it has is one that it's currently using to defend itself, such as a weapon during a combat encounter, it can choose to be Stunned for 1 round instead of giving up the item. This might require the target to @Compendium[pf2e.actionspf2e.Interact]{Interact} to retrieve an item or move to reach the nearest creature, and handing the item to the target always requires an Interact action.</p>\n<p><strong>Critical Failure</strong> As failure, except the duration is 4 rounds, and the target must repeat the effects of failure on each of its turns. At the end of each of its turns, the target can attempt a new Will save to reduce the remaining duration by 1 round, ending it entirely on a critical success.</p>"
        },
        "duration": {
            "value": "varies"
        },
        "hasCounteractCheck": {
            "value": false
        },
        "level": {
            "value": 2
        },
        "location": {
            "value": ""
        },
        "materials": {
            "value": ""
        },
        "prepared": {
            "value": false
        },
        "primarycheck": {
            "value": ""
        },
        "range": {
            "value": "30 feet"
        },
        "rules": [],
        "save": {
            "basic": "",
            "value": "will"
        },
        "scaling": {
            "formula": "",
            "mode": "none"
        },
        "school": {
            "value": "enchantment"
        },
        "secondarycasters": {
            "value": ""
        },
        "secondarycheck": {
            "value": ""
        },
        "source": {
            "value": ""
        },
        "spellType": {
            "value": "save"
        },
        "sustained": {
            "value": false
        },
        "target": {
            "value": "1 creature"
        },
        "time": {
            "value": "2"
        },
        "traditions": {
            "value": [
                "arcane",
                "divine",
                "occult"
            ]
        },
        "traits": {
            "custom": "",
            "rarity": {
                "value": "common"
            },
            "value": [
                "enchantment",
                "incapacitation",
                "mental"
            ]
        }
    },
    "effects": [],
    "flags": {},
    "img": "systems/pf2e/icons/spells/charitable-urge.webp",
    "name": "Charitable Urge",
    "permission": {
        "default": 0
    },
    "type": "spell"
}
