{
    "_id": "oNUyCqbpGWHifS02",
    "data": {
        "ability": {
            "value": ""
        },
        "area": {
            "areaType": "",
            "value": null
        },
        "areasize": {
            "value": ""
        },
        "category": {
            "value": "spell"
        },
        "components": {
            "value": "somatic, verbal"
        },
        "cost": {
            "value": ""
        },
        "damage": {
            "applyMod": false,
            "value": ""
        },
        "damageType": {
            "value": ""
        },
        "description": {
            "chat": "",
            "unidentified": "",
            "value": "<p><span>Thin hyphae grow from your feet and plunge into the earth, creating a symbiotic fungal network that attaches to plants within 30 feet and connects you to their root systems. You gain an imprecise tremorsense allowing you to sense anything directly touching plants within that distance. If you move, the hyphae snap and the spell ends.</span></p>\n<hr />\n<p><strong>Heightened (4th)</strong> You can control plants in the area to a small degree, allowing you to make Strikes with tree branches, exposed roots, or similarly solid plants. To do so, you use a Strike action, but you can Strike any creature you can detect with your tremorsense. These are melee spell attacks that deal 2d8 bludgeoning damage plus your spellcasting ability modifier. Unusual plants, such as thorny vines, might deal a different type of damage at the GM's discretion. You can't make any other attacks through these plants, or take any other actions through them, other than these Strikes.</p>\n<p><strong>Heightened (6th)</strong> As 4th level, but you can use other simple manipulate actions through the plants, including having a branch pick an object up or open a door, though more complex actions, such as picking a lock or disabling a trap, remain impossible.</p>"
        },
        "duration": {
            "value": "1 minute"
        },
        "hasCounteractCheck": {
            "value": false
        },
        "level": {
            "value": 2
        },
        "location": {
            "value": ""
        },
        "materials": {
            "value": ""
        },
        "prepared": {
            "value": ""
        },
        "primarycheck": {
            "value": ""
        },
        "range": {
            "value": ""
        },
        "rules": [],
        "save": {
            "basic": "",
            "value": ""
        },
        "scaling": {
            "formula": "",
            "mode": "none"
        },
        "school": {
            "value": "necromancy"
        },
        "secondarycasters": {
            "value": ""
        },
        "secondarycheck": {
            "value": ""
        },
        "source": {
            "value": ""
        },
        "spellType": {
            "value": "utility"
        },
        "sustained": {
            "value": false
        },
        "target": {
            "value": ""
        },
        "time": {
            "value": "2"
        },
        "traditions": {
            "custom": "",
            "value": [
                "primal"
            ]
        },
        "traits": {
            "custom": "",
            "rarity": {
                "value": "common"
            },
            "value": [
                "necromancy",
                "fungus"
            ]
        }
    },
    "effects": [],
    "flags": {},
    "img": "systems/pf2e/icons/spells/fungal-hyphae.webp",
    "name": "Fungal Hyphae",
    "permission": {
        "default": 0
    },
    "type": "spell"
}
