{
    "_id": "G0T1xv1FoZ23Jxvt",
    "data": {
        "ability": {
            "value": ""
        },
        "area": {
            "value": ""
        },
        "areasize": {
            "value": ""
        },
        "category": {
            "value": "focus"
        },
        "components": {
            "value": "Verbal"
        },
        "cost": {
            "value": ""
        },
        "damage": {
            "applyMod": false,
            "value": ""
        },
        "damageType": {
            "value": ""
        },
        "description": {
            "chat": "",
            "unidentified": "",
            "value": "<p>You read slightly into the future and give fate a tiny push to achieve the result you desire. Once during the duration, when the target fails an attack roll, skill check, or saving throw and a +1 status bonus would turn a critical failure into a failure, or failure into a success, you grant the target a +1 status bonus to the check retroactively, changing the outcome appropriately. The spell then ends, and the target is temporarily immune for 1 minute.</p>\n<p>If you cast nudge fate while a previous casting of this hex is still in effect, the previous effect ends.</p>"
        },
        "duration": {
            "value": "Sustained up to 1 minute"
        },
        "hasCounteractCheck": {
            "value": false
        },
        "level": {
            "value": 0
        },
        "location": {
            "value": "gj8uSdGt5Fbk1fGz"
        },
        "materials": {
            "value": ""
        },
        "prepared": {
            "value": ""
        },
        "primarycheck": {
            "value": ""
        },
        "range": {
            "value": "30 feet"
        },
        "rules": [],
        "save": {
            "basic": "",
            "value": "will"
        },
        "scaling": {
            "formula": "",
            "mode": "none"
        },
        "school": {
            "value": "divination"
        },
        "secondarycasters": {
            "value": ""
        },
        "secondarycheck": {
            "value": ""
        },
        "source": {
            "value": ""
        },
        "spellType": {
            "value": "utility"
        },
        "sustained": {
            "value": false
        },
        "target": {
            "value": "1 creature"
        },
        "time": {
            "value": "1"
        },
        "traditions": {
            "value": []
        },
        "traits": {
            "custom": "",
            "rarity": {
                "value": "uncommon"
            },
            "selected": {
                "cantrip": "Cantrip",
                "custom": "Hex",
                "divination": "Divination",
                "witch": "Witch"
            },
            "value": [
                "cantrip",
                "divination",
                "witch",
                "hex"
            ]
        }
    },
    "effects": [],
    "flags": {},
    "img": "systems/pf2e/icons/spells/nudge-fate.webp",
    "name": "Nudge Fate",
    "permission": {
        "default": 0
    },
    "type": "spell"
}
