{
    "_id": "3mINzPzup2m9qzFU",
    "data": {
        "ability": {
            "value": ""
        },
        "area": {
            "value": ""
        },
        "areasize": {
            "value": "5-foot amanation"
        },
        "category": {
            "value": "focus"
        },
        "components": {
            "value": "somatic, verbal"
        },
        "cost": {
            "value": ""
        },
        "damage": {
            "applyMod": false,
            "value": "1d4"
        },
        "damageType": {
            "value": "mental"
        },
        "description": {
            "chat": "",
            "unidentified": "",
            "value": "<p>You manifest a supernatural funerary mask, granting you a +1 status bonus to Will saving throws against emotion effects for 1 minute. Its somber countenance forces your foes to confront their regrets and sins. Each enemy in the area when you @Compendium[pf2e.actionspf2e.Cast a Spell]{Cast the Spell} or that starts its turn in the area takes [[/r 1d4 #mental]] mental damage and must attempt a Will save.</p>\n<hr />\n<p><strong>Critical Success</strong> The creature is unaffected.</p>\n<p><strong>Success</strong> The creature takes half damage.</p>\n<p><strong>Failure</strong> The creature takes full damage and takes a -1 status penalty to Will saves against emotion effects for 1 round.</p>\n<p><strong>Critical Failure</strong> The creature takes double damage and a -1 status penalty to Will saves against emotion effects for 1 minute.</p>\n<hr />\n<p><strong>Heightened (+2)</strong> Increase the mental damage by [[/r 2d4 #mental]] and the emanation's radius by 5 feet.</p>"
        },
        "duration": {
            "value": "1 minute"
        },
        "hasCounteractCheck": {
            "value": false
        },
        "level": {
            "value": 1
        },
        "location": {
            "value": ""
        },
        "materials": {
            "value": ""
        },
        "prepared": {
            "value": ""
        },
        "primarycheck": {
            "value": ""
        },
        "range": {
            "value": ""
        },
        "rules": [],
        "save": {
            "basic": "",
            "value": "will"
        },
        "scaling": {
            "formula": "2d4",
            "mode": "level2"
        },
        "school": {
            "value": "divination"
        },
        "secondarycasters": {
            "value": ""
        },
        "secondarycheck": {
            "value": ""
        },
        "source": {
            "value": ""
        },
        "spellType": {
            "value": "attack"
        },
        "sustained": {
            "value": false
        },
        "target": {
            "value": "enemies in area"
        },
        "time": {
            "value": "2"
        },
        "traditions": {
            "value": []
        },
        "traits": {
            "custom": "",
            "rarity": {
                "value": "uncommon"
            },
            "value": [
                "divination",
                "emotion",
                "mental",
                "sorcerer",
                "visual"
            ]
        }
    },
    "effects": [],
    "flags": {},
    "img": "systems/pf2e/icons/spells/sepulchral-mask.webp",
    "name": "Sepulchral Mask",
    "permission": {
        "default": 0
    },
    "type": "spell"
}
