{
    "_id": "xM35hJacTM1BSXUl",
    "data": {
        "ability": {
            "value": ""
        },
        "area": {
            "areaType": "emanation",
            "value": 60
        },
        "areasize": {
            "value": "60-foot emanation"
        },
        "category": {
            "value": "focus"
        },
        "components": {
            "value": "verbal"
        },
        "cost": {
            "value": ""
        },
        "damage": {
            "applyMod": false,
            "value": ""
        },
        "damageType": {
            "value": ""
        },
        "description": {
            "chat": "",
            "unidentified": "",
            "value": "<p><span>The \"Song of Silver\" was an enchanted song used by the Silver Ravens to battle diabolic forces. You pull from select verses to temporarily replicate some of the legendary song's benefits, albeit on a much smaller scale.<br /></span></p>\n<p><span>Weapon and unarmed attacks by allies in the area are treated as silver. In addition, this spell automatically attempts to counteract any @Compendium[pf2e.spells-srd.Dimension Door]{Dimension Door} cast by a devil within the area or cast by a devil attempting to enter the area using <em>dimension door</em>. If a devil attempts to enter the area using <em>dimension door</em> and the spell is counteracted, the devil remains where it started.</span></p>"
        },
        "duration": {
            "value": "1 round"
        },
        "hasCounteractCheck": {
            "value": true
        },
        "level": {
            "value": 0
        },
        "location": {
            "value": ""
        },
        "materials": {
            "value": ""
        },
        "prepared": {
            "value": ""
        },
        "primarycheck": {
            "value": ""
        },
        "range": {
            "value": ""
        },
        "rules": [],
        "save": {
            "basic": "",
            "value": ""
        },
        "scaling": {
            "formula": "",
            "mode": "none"
        },
        "school": {
            "value": "abjuration"
        },
        "secondarycasters": {
            "value": ""
        },
        "secondarycheck": {
            "value": ""
        },
        "source": {
            "value": ""
        },
        "spellType": {
            "value": "utility"
        },
        "sustained": {
            "value": false
        },
        "target": {
            "value": ""
        },
        "time": {
            "value": "1"
        },
        "traditions": {
            "custom": "",
            "value": []
        },
        "traits": {
            "custom": "",
            "rarity": {
                "value": "rare"
            },
            "value": [
                "abjuration",
                "bard",
                "cantrip",
                "composition"
            ]
        }
    },
    "effects": [],
    "flags": {},
    "img": "systems/pf2e/icons/spells/silvers-refrain.webp",
    "name": "Silver's Refrain",
    "permission": {
        "default": 0
    },
    "type": "spell"
}
