{
    "_id": "B3tbO85GBpzQ3u8l",
    "data": {
        "ability": {
            "value": ""
        },
        "area": {
            "value": ""
        },
        "areasize": {
            "value": ""
        },
        "category": {
            "value": "focus"
        },
        "components": {
            "value": "somatic, verbal"
        },
        "cost": {
            "value": ""
        },
        "damage": {
            "applyMod": false,
            "value": ""
        },
        "damageType": {
            "value": ""
        },
        "description": {
            "chat": "",
            "unidentified": "",
            "value": "<p>You focus your magic upon an enemy, wishing for their defenses to fail and turning their strengths into weaknesses. The target must attempt one Will saving throw for all of the following effects.</p>\n<p>• The target gains weakness 5 to one energy type of your choice.<br />• The target's resistances are reduced by 5.<br />• The target takes a -10-foot status penalty to all its Speeds.<br />• The target takes a -1 status penalty to its saving throws.</p>\n<hr />\n<p><strong>Critical Success</strong> The target is unaffected.</p>\n<p><strong>Success</strong> The target takes the penalties for 1 round.</p>\n<p><strong>Failure</strong> The target takes the penalties for 1 minute.</p>\n<p><strong>Critical Failure</strong> As failure, and the target takes a -1 status penalty to AC for the duration.</p>\n<hr />\n<p><strong>Heightened (+1)</strong> Increase the weakness and the reduction to resistances by 1.</p>"
        },
        "duration": {
            "value": "varies"
        },
        "hasCounteractCheck": {
            "value": false
        },
        "level": {
            "value": 5
        },
        "location": {
            "value": ""
        },
        "materials": {
            "value": ""
        },
        "prepared": {
            "value": ""
        },
        "primarycheck": {
            "value": ""
        },
        "range": {
            "value": "60 feet"
        },
        "rules": [],
        "save": {
            "basic": "",
            "value": "will"
        },
        "scaling": {
            "formula": "",
            "mode": "level1"
        },
        "school": {
            "value": "transmutation"
        },
        "secondarycasters": {
            "value": ""
        },
        "secondarycheck": {
            "value": ""
        },
        "source": {
            "value": ""
        },
        "spellType": {
            "value": "save"
        },
        "sustained": {
            "value": false
        },
        "target": {
            "value": "1 creature"
        },
        "time": {
            "value": "2"
        },
        "traditions": {
            "value": []
        },
        "traits": {
            "custom": "",
            "rarity": {
                "value": "uncommon"
            },
            "value": [
                "sorcerer",
                "transmutation"
            ]
        }
    },
    "effects": [],
    "flags": {},
    "img": "systems/pf2e/icons/spells/wish-twisted-form.webp",
    "name": "Wish-Twisted Form",
    "permission": {
        "default": 0
    },
    "type": "spell"
}
