{
    "_id": "NWbdAN5gDse0ad7C",
    "data": {
        "actionCategory": {
            "value": ""
        },
        "actionType": {
            "value": "passive"
        },
        "actions": {
            "value": ""
        },
        "description": {
            "value": "<p>You can exert your unsettling presence to subtly Demoralize others. When you do, Demoralize loses the auditory trait and gains the visual trait, and you don’t take a penalty when you attempt to Demoralize a creature that doesn’t understand your language. You also gain the @Compendium[pf2e.actionspf2e.Invigorating Fear]{Invigorating Fear} reaction. Your alternate form is a fox, which has the statistics of 1st-level @Compendium[pf2e.spells-srd.Pest Form]{Pest Form}.</p>"
        },
        "featType": {
            "value": "heritage"
        },
        "level": {
            "value": 1
        },
        "location": "",
        "prerequisites": {
            "value": []
        },
        "rules": [],
        "source": {
            "value": ""
        },
        "traits": {
            "custom": "",
            "rarity": {
                "value": "common"
            },
            "value": [
                "kitsune"
            ]
        }
    },
    "effects": [],
    "flags": {},
    "img": "systems/pf2e/icons/default-icons/feat.svg",
    "name": "Dark Fields Kitsune",
    "permission": {
        "default": 0
    },
    "type": "feat"
}
