{
    "_id": "1lv7RMp7t5iqeUFT",
    "data": {
        "actionCategory": {
            "value": ""
        },
        "actionType": {
            "value": "passive"
        },
        "actions": {
            "value": ""
        },
        "description": {
            "chat": "",
            "unidentified": "",
            "value": "<p>You come from a long line of skilled hunters and trackers and have a particularly keen sense of smell.</p>\n<p>You gain imprecise scent with a range of 30 feet. This means you can use your sense of smell to determine a creature's location. The GM will usually double the range if you're downwind from the creature or halve the range if you're upwind.</p>\n<p>In addition, you gain a +2 circumstance bonus to @Compendium[pf2e.actionspf2e.Track]{Track} a creature or object if you've smelled it before.</p>"
        },
        "featType": {
            "value": "heritage"
        },
        "level": {
            "value": 1
        },
        "location": "",
        "prerequisites": {
            "value": []
        },
        "rules": [
            {
                "key": "PF2E.RuleElement.FlatModifier",
                "label": "Hunting Catfolk (Track smelled creatures)",
                "predicate": {
                    "all": [
                        "action:track",
                        "target:previously-smelled"
                    ]
                },
                "selector": "survival",
                "type": "circumstance",
                "value": 2
            },
            {
                "acuity": "imprecise",
                "key": "PF2E.RuleElement.Sense",
                "label": "PF2E.SensesScent",
                "range": 30,
                "selector": "scent"
            }
        ],
        "source": {
            "value": ""
        },
        "traits": {
            "custom": "",
            "rarity": {
                "value": "common"
            },
            "value": [
                "catfolk"
            ]
        }
    },
    "effects": [],
    "flags": {},
    "img": "systems/pf2e/icons/features/ancestry/hunting-catfolk.webp",
    "name": "Hunting Catfolk",
    "permission": {
        "default": 0
    },
    "type": "feat"
}
