{
    "_id": "ptpK6H1rM4Bu3ry4",
    "data": {
        "actionCategory": {
            "value": ""
        },
        "actionType": {
            "value": "passive"
        },
        "actions": {
            "value": ""
        },
        "description": {
            "chat": "",
            "unidentified": "",
            "value": "<p><span id=\"docs-internal-guid-11f12efa-7fff-e078-516e-02b4416b3602\">You come from a line of tengu ascetics, leaving you with a link to the spirits of the world and the Great Beyond. You can cast the @Compendium[pf2e.spells-srd.Disrupt Undead]{Disrupt Undead} cantrip as a primal innate spell at will. A cantrip is heightened to a spell level equal to half your level rounded up. </span></p>\n<p><span id=\"docs-internal-guid-11f12efa-7fff-e078-516e-02b4416b3602\">Each time you cast a spell from a tengu heritage or ancestry feat, you can decide whether it's a divine or primal spell.</span></p>"
        },
        "featType": {
            "value": "heritage"
        },
        "level": {
            "value": 1
        },
        "prerequisites": {
            "value": []
        },
        "rules": [],
        "source": {
            "value": ""
        },
        "traits": {
            "custom": "",
            "rarity": {
                "value": "common"
            },
            "value": [
                "tengu"
            ]
        }
    },
    "effects": [],
    "flags": {},
    "img": "systems/pf2e/icons/features/ancestry/mountainkeeper-tengu.webp",
    "name": "Mountainkeeper Tengu",
    "permission": {
        "default": 0
    },
    "type": "feat"
}
