{
    "_id": "ocS6B3AV1n7yHFd5",
    "data": {
        "actionCategory": {
            "value": ""
        },
        "actionType": {
            "value": "passive"
        },
        "actions": {
            "value": ""
        },
        "description": {
            "chat": "",
            "unidentified": "",
            "value": "<p><strong>[Slotless]</strong></p>\n<p><strong>Prerequisites</strong>: Tier 4 with the Envoy's Alliance</p>\n<p><strong>Cost</strong>: 8 Fame</p>\n<p><strong>Effect</strong>: You have met, interviewed, and mentored numerous promising recruits, yet it is thanks to your persuasive overtures and keen eye that you identified and recruited an especially accomplished agent. When you select this boon, it does not apply to your current character. Instead, select one of your Pathfinder Society characters with 0 XP. That character gains 12 XP, 12 Fame, 30 gp, and 12 Reputation to distribute among any number of legal factions.</p>\n<p><strong>Special</strong>: You can apply this benefit to the same character to whom you applied the Eager Protégé benefit, so long as that PC still has 12 XP. If you do so, you instead increase that character's XP by 12 (to 24 total), award them an additional 12 Reputation to distribute between one or more factions, and grant them an additional 45 gp (for a total of 75 gp).</p>"
        },
        "featType": {
            "value": "pfsboon"
        },
        "level": {
            "value": "0"
        },
        "prerequisites": {
            "value": []
        },
        "rules": [],
        "source": {
            "value": ""
        },
        "traits": {
            "custom": "",
            "rarity": {
                "value": "common"
            },
            "selected": {},
            "value": []
        }
    },
    "effects": [],
    "flags": {},
    "img": "systems/pf2e/icons/default-icons/mystery-man.webp",
    "name": "Exemplary Recruiter",
    "permission": {
        "default": 0
    },
    "type": "feat"
}
