{
    "_id": "oXG7eX26FmePmwUF",
    "data": {
        "description": {
            "value": "<p>Granted by @Compendium[pf2e.feats-srd.Discordant Voice]{Discordant Voice}, while you are affected by Inspire Courage.</p>"
        },
        "duration": {
            "expiry": "turn-start",
            "sustained": false,
            "unit": "unlimited",
            "value": -1
        },
        "level": {
            "value": 1
        },
        "rules": [
            {
                "damageType": "sonic",
                "diceNumber": 1,
                "dieSize": "d6",
                "key": "PF2E.RuleElement.DamageDice",
                "predicate": {
                    "any": [
                        "weapon",
                        "unarmed"
                    ]
                },
                "selector": "damage"
            }
        ],
        "source": {
            "value": ""
        },
        "start": {
            "initiative": null,
            "value": 0
        },
        "target": null,
        "traits": {
            "custom": "",
            "rarity": {
                "value": "common"
            },
            "value": []
        }
    },
    "effects": [],
    "flags": {},
    "img": "systems/pf2e/icons/spells/ghost-sound.webp",
    "name": "Effect: Discordant Voice",
    "permission": {
        "default": 0
    },
    "type": "effect"
}
