{
    "_id": "LB0PTV5yqMlBmRFj",
    "data": {
        "description": {
            "value": "<p>Granted by @Compendium[pf2e.feats-srd.Monster Hunter]{Monster Hunter} if you have @Compendium[pf2e.feats-srd.Legendary Monster Hunter]{Legendary Monster Hunter}.</p>\n<p>You gain a <span style=\"color: var(--body);\">+2 circumstance bonus to your next attack roll against that prey.</span></p>"
        },
        "duration": {
            "expiry": "turn-start",
            "sustained": false,
            "unit": "unlimited",
            "value": -1
        },
        "level": {
            "value": 16
        },
        "rules": [
            {
                "key": "PF2E.RuleElement.ToggleProperty",
                "label": "Target is the subject of Monster Hunter",
                "property": "flags.pf2e.rollOptions.attack-roll.monster-hunter"
            },
            {
                "key": "PF2E.RuleElement.FlatModifier",
                "label": "Legendary Monster Hunter",
                "predicate": {
                    "all": [
                        "monster-hunter"
                    ]
                },
                "roll-options": [
                    "all"
                ],
                "selector": "attack",
                "type": "circumstance",
                "value": 2
            }
        ],
        "source": {
            "value": ""
        },
        "start": {
            "initiative": null,
            "value": 3648
        },
        "target": null,
        "tokenIcon": {
            "show": true
        },
        "traits": {
            "custom": "",
            "rarity": {
                "value": "common"
            },
            "value": []
        }
    },
    "effects": [],
    "flags": {},
    "img": "systems/pf2e/icons/spells/monstrosity-form.webp",
    "name": "Effect: Legendary Monster Hunter",
    "permission": {
        "default": 0
    },
    "type": "effect"
}
