{
    "_id": "RXbfq6oqzVnW6xOV",
    "data": {
        "description": {
            "chat": "",
            "unidentified": "",
            "value": "<p>Granted by @Compendium[pf2e.feats-srd.Shooting Stars Stance]{Shooting Stars Stance}</p>\n<p>You enter a stance that lets you throw shuriken with lightning speed.</p>\n<p>While in this stance, you can use your monk feats or monk abilities that normally require unarmed attacks with shuriken instead.</p>"
        },
        "duration": {
            "expiry": "turn-start",
            "sustained": false,
            "unit": "unlimited",
            "value": -1
        },
        "level": {
            "value": 0
        },
        "rules": [
            {
                "key": "PF2E.RuleElement.TokenEffectIcon"
            }
        ],
        "source": {
            "value": ""
        },
        "start": {
            "initiative": null,
            "value": 0
        },
        "target": null,
        "traits": {
            "custom": "",
            "rarity": {
                "value": "common"
            },
            "value": []
        }
    },
    "effects": [],
    "flags": {},
    "img": "systems/pf2e/icons/equipment/weapons/shuriken.webp",
    "name": "Stance: Shooting Stars Stance",
    "permission": {
        "default": 0
    },
    "type": "effect"
}
